G75*
%MOIN*%
%OFA0B0*%
%FSLAX24Y24*%
%IPPOS*%
%LPD*%
%AMOC8*
5,1,8,0,0,1.08239X$1,22.5*
%
%ADD10R,0.0787X0.0591*%
%ADD11R,0.0701X0.0598*%
%ADD12R,0.1260X0.0709*%
%ADD13R,0.0710X0.0630*%
D10*
X003677Y004269D03*
X003677Y005450D03*
D11*
X006212Y004315D03*
X007212Y004315D03*
X008212Y004315D03*
X008212Y007972D03*
X007212Y007972D03*
X006212Y007972D03*
D12*
X003673Y001029D03*
X003673Y003234D03*
X003689Y006793D03*
X003689Y008998D03*
D13*
X005909Y003227D03*
X005909Y002107D03*
X007417Y002139D03*
X007417Y003258D03*
X008783Y003262D03*
X008783Y002143D03*
M02*
