%
M48
M72
T01C0.0240
T02C0.0400
T03C0.0520
T04C0.0984
%
T01
X3743Y6030
X3874Y7737
X8077Y3140
X8077Y2615
X6763Y2615
X9390Y3929
T02
X9740Y4624
X9740Y5624
X9740Y6624
X9740Y7624
X8488Y9927
X7488Y9927
X6488Y9927
T03
X1539Y8976
X1539Y6996
X1480Y4397
X1480Y2417
T04
X984Y907
X984Y10356
M30
