<?xml version="1.0" encoding="utf-8"?>
<!DOCTYPE eagle SYSTEM "eagle.dtd">
<eagle version="7.1.0">
<drawing>
<settings>
<setting alwaysvectorfont="no"/>
<setting verticaltext="up"/>
</settings>
<grid distance="0.1" unitdist="inch" unit="inch" style="lines" multiple="1" display="no" altdistance="0.01" altunitdist="inch" altunit="inch"/>
<layers>
<layer number="1" name="Top" color="4" fill="1" visible="yes" active="yes"/>
<layer number="2" name="Route2" color="1" fill="3" visible="no" active="yes"/>
<layer number="3" name="Route3" color="4" fill="3" visible="no" active="yes"/>
<layer number="4" name="Route4" color="1" fill="4" visible="no" active="yes"/>
<layer number="5" name="Route5" color="4" fill="4" visible="no" active="yes"/>
<layer number="6" name="Route6" color="1" fill="8" visible="no" active="yes"/>
<layer number="7" name="Route7" color="4" fill="8" visible="no" active="yes"/>
<layer number="8" name="Route8" color="1" fill="2" visible="no" active="yes"/>
<layer number="9" name="Route9" color="4" fill="2" visible="no" active="yes"/>
<layer number="10" name="Route10" color="1" fill="7" visible="no" active="yes"/>
<layer number="11" name="Route11" color="4" fill="7" visible="no" active="yes"/>
<layer number="12" name="Route12" color="1" fill="5" visible="no" active="yes"/>
<layer number="13" name="Route13" color="4" fill="5" visible="no" active="yes"/>
<layer number="14" name="Route14" color="1" fill="6" visible="no" active="yes"/>
<layer number="15" name="Route15" color="4" fill="6" visible="no" active="yes"/>
<layer number="16" name="Bottom" color="1" fill="1" visible="yes" active="yes"/>
<layer number="17" name="Pads" color="2" fill="1" visible="yes" active="yes"/>
<layer number="18" name="Vias" color="2" fill="1" visible="yes" active="yes"/>
<layer number="19" name="Unrouted" color="6" fill="1" visible="yes" active="yes"/>
<layer number="20" name="Dimension" color="15" fill="1" visible="yes" active="yes"/>
<layer number="21" name="tPlace" color="7" fill="1" visible="yes" active="yes"/>
<layer number="22" name="bPlace" color="7" fill="1" visible="yes" active="yes"/>
<layer number="23" name="tOrigins" color="15" fill="1" visible="yes" active="yes"/>
<layer number="24" name="bOrigins" color="15" fill="1" visible="yes" active="yes"/>
<layer number="25" name="tNames" color="7" fill="1" visible="yes" active="yes"/>
<layer number="26" name="bNames" color="7" fill="1" visible="yes" active="yes"/>
<layer number="27" name="tValues" color="7" fill="1" visible="yes" active="yes"/>
<layer number="28" name="bValues" color="7" fill="1" visible="yes" active="yes"/>
<layer number="29" name="tStop" color="7" fill="3" visible="no" active="yes"/>
<layer number="30" name="bStop" color="7" fill="6" visible="no" active="yes"/>
<layer number="31" name="tCream" color="7" fill="4" visible="no" active="yes"/>
<layer number="32" name="bCream" color="7" fill="5" visible="no" active="yes"/>
<layer number="33" name="tFinish" color="6" fill="3" visible="no" active="yes"/>
<layer number="34" name="bFinish" color="6" fill="6" visible="no" active="yes"/>
<layer number="35" name="tGlue" color="7" fill="4" visible="no" active="yes"/>
<layer number="36" name="bGlue" color="7" fill="5" visible="no" active="yes"/>
<layer number="37" name="tTest" color="7" fill="1" visible="no" active="yes"/>
<layer number="38" name="bTest" color="7" fill="1" visible="no" active="yes"/>
<layer number="39" name="tKeepout" color="4" fill="11" visible="yes" active="yes"/>
<layer number="40" name="bKeepout" color="1" fill="11" visible="yes" active="yes"/>
<layer number="41" name="tRestrict" color="4" fill="10" visible="yes" active="yes"/>
<layer number="42" name="bRestrict" color="1" fill="10" visible="yes" active="yes"/>
<layer number="43" name="vRestrict" color="2" fill="10" visible="yes" active="yes"/>
<layer number="44" name="Drills" color="7" fill="1" visible="no" active="yes"/>
<layer number="45" name="Holes" color="7" fill="1" visible="no" active="yes"/>
<layer number="46" name="Milling" color="3" fill="1" visible="no" active="yes"/>
<layer number="47" name="Measures" color="7" fill="1" visible="no" active="yes"/>
<layer number="48" name="Document" color="7" fill="1" visible="yes" active="yes"/>
<layer number="49" name="Reference" color="7" fill="1" visible="yes" active="yes"/>
<layer number="51" name="tDocu" color="7" fill="1" visible="yes" active="yes"/>
<layer number="52" name="bDocu" color="7" fill="1" visible="yes" active="yes"/>
<layer number="90" name="Modules" color="5" fill="1" visible="yes" active="yes"/>
<layer number="91" name="Nets" color="2" fill="1" visible="yes" active="yes"/>
<layer number="92" name="Busses" color="1" fill="1" visible="yes" active="yes"/>
<layer number="93" name="Pins" color="2" fill="1" visible="yes" active="yes"/>
<layer number="94" name="Symbols" color="15" fill="1" visible="yes" active="yes"/>
<layer number="95" name="Names" color="7" fill="1" visible="yes" active="yes"/>
<layer number="96" name="Values" color="7" fill="1" visible="yes" active="yes"/>
<layer number="97" name="Info" color="7" fill="1" visible="yes" active="yes"/>
<layer number="98" name="Guide" color="6" fill="1" visible="yes" active="yes"/>
</layers>
<library>
<packages>
<package name="MCMET1A_250V_FUSE">
<pad name="P$1" x="-2.54" y="0" drill="0.7" diameter="1.27"/>
<pad name="P$2" x="2.54" y="0" drill="0.7" diameter="1.27"/>
<circle x="0" y="0" radius="4.175" width="0.127" layer="21"/>
</package>
<package name="EUED">
<pad name="P$1" x="-2.5" y="0" drill="0.8"/>
<pad name="P$2" x="2.5" y="0" drill="0.8"/>
<circle x="0" y="0" radius="5" width="0.127" layer="21"/>
</package>
<package name="750341872">
<pad name="P$5" x="-5.08" y="5" drill="1.3"/>
<pad name="P$3" x="-5.08" y="0" drill="1.3"/>
<pad name="P$1" x="-5.08" y="-5" drill="1.3"/>
<wire x1="-4.08" y1="-7.8" x2="-4.08" y2="7.8" width="0.127" layer="21"/>
<wire x1="-4.08" y1="7.8" x2="5.92" y2="7.8" width="0.127" layer="21"/>
<wire x1="5.92" y1="7.8" x2="5.92" y2="-7.8" width="0.127" layer="21"/>
<wire x1="5.92" y1="-7.8" x2="-4.08" y2="-7.8" width="0.127" layer="21"/>
<pad name="S" x="6.92" y="1.5" drill="0.8"/>
<pad name="F" x="6.92" y="-1.5" drill="0.8"/>
<pad name="P$4" x="-5.08" y="2.5" drill="1.3"/>
</package>
<package name="UCC28722DBV">
<smd name="P$2" x="-1.35" y="0" dx="1.05" dy="0.6" layer="1"/>
<smd name="P$5" x="1.35" y="0" dx="1.05" dy="0.6" layer="1"/>
<smd name="P$1" x="-1.35" y="0.95" dx="1.05" dy="0.6" layer="1"/>
<smd name="P$6" x="1.35" y="0.95" dx="1.05" dy="0.6" layer="1"/>
<smd name="P$3" x="-1.35" y="-0.95" dx="1.05" dy="0.6" layer="1"/>
<smd name="P$4" x="1.35" y="-0.95" dx="1.05" dy="0.6" layer="1"/>
<wire x1="-0.8" y1="-1.5" x2="0.8" y2="-1.5" width="0.127" layer="20"/>
<wire x1="0.8" y1="-1.5" x2="0.8" y2="1.5" width="0.127" layer="20"/>
<wire x1="0.8" y1="1.5" x2="-0.8" y2="1.5" width="0.127" layer="20"/>
<wire x1="-0.8" y1="1.5" x2="-0.8" y2="-1.5" width="0.127" layer="20"/>
</package>
<package name="BZM55C30-TR">
<smd name="P$1" x="-1.3" y="0" dx="1.2" dy="0.8" layer="1" rot="R270"/>
<smd name="P$2" x="1.3" y="0" dx="1.2" dy="0.8" layer="1" rot="R270"/>
<wire x1="-0.8" y1="-0.6" x2="-0.8" y2="0.6" width="0.127" layer="21"/>
<wire x1="-0.8" y1="0.6" x2="0.8" y2="0.6" width="0.127" layer="21"/>
<wire x1="0.8" y1="0.6" x2="0.8" y2="-0.6" width="0.127" layer="21"/>
<wire x1="0.8" y1="-0.6" x2="-0.8" y2="-0.6" width="0.127" layer="21"/>
</package>
<package name="DFLU1400-7">
<smd name="P$2" x="-1.6" y="0" dx="2.2" dy="1.4" layer="1"/>
<smd name="P$1" x="0.95" y="0" dx="0.9" dy="1.4" layer="1"/>
</package>
<package name="PDS1045-13">
<smd name="P$5" x="0" y="0" dx="3.36" dy="4.86" layer="1"/>
<smd name="P$1" x="-1" y="-4" dx="1.39" dy="1.4" layer="1"/>
<smd name="P$2" x="1" y="-4" dx="1.39" dy="1.4" layer="1"/>
</package>
<package name="EEUFR0J221">
<pad name="P$1" x="-1.25" y="0" drill="0.8"/>
<pad name="P$2" x="1.25" y="0" drill="0.8"/>
<circle x="0" y="0" radius="3.159903125" width="0.127" layer="21"/>
</package>
<package name="EEU-FC0J561">
<pad name="P$1" x="-1.75" y="0" drill="0.8"/>
<pad name="P$2" x="1.75" y="0" drill="0.8"/>
<circle x="0" y="0" radius="3.95" width="0.127" layer="21"/>
</package>
<package name="1N4764A">
<pad name="P$1" x="0" y="0" drill="0.8"/>
<circle x="0" y="0" radius="1.5" width="0.127" layer="21"/>
<pad name="P$2" x="2.3" y="0" drill="0.8"/>
<text x="-0.4" y="1.5" size="0.4064" layer="21">&gt;NAME</text>
</package>
</packages>
<symbols>
<symbol name="MCMET1A_250V_FUSE">
<pin name="P$1" x="-7.62" y="0" visible="off" length="middle"/>
<pin name="P$2" x="7.62" y="0" visible="off" length="middle" rot="R180"/>
<wire x1="-2.54" y1="-2.54" x2="2.54" y2="-2.54" width="0.254" layer="94"/>
<wire x1="2.54" y1="-2.54" x2="2.54" y2="2.54" width="0.254" layer="94"/>
<wire x1="2.54" y1="2.54" x2="-2.54" y2="2.54" width="0.254" layer="94"/>
<wire x1="-2.54" y1="2.54" x2="-2.54" y2="-2.54" width="0.254" layer="94"/>
<text x="-2.54" y="5.08" size="1.778" layer="94">&gt;NAME</text>
</symbol>
<symbol name="EUED">
<pin name="P$1" x="-7.62" y="0" visible="pad" length="middle"/>
<pin name="P$2" x="5.08" y="0" visible="pad" length="middle" rot="R180"/>
<wire x1="-2.54" y1="-2.54" x2="-2.54" y2="2.54" width="0.254" layer="94"/>
<wire x1="0" y1="-2.54" x2="0" y2="2.54" width="0.254" layer="94" curve="-90"/>
<wire x1="-4.5" y1="2" x2="-3.5" y2="2" width="0.254" layer="94"/>
<wire x1="-4" y1="1.5" x2="-4" y2="2.5" width="0.254" layer="94"/>
<text x="-2.54" y="5.08" size="1.778" layer="94">&gt;NAME</text>
<text x="-2.54" y="-5.08" size="1.778" layer="94">&gt;VALUE</text>
</symbol>
<symbol name="750341872">
<wire x1="0" y1="10.16" x2="0" y2="7.62" width="0.254" layer="94" curve="-180"/>
<wire x1="0" y1="7.62" x2="0" y2="5.08" width="0.254" layer="94" curve="-180"/>
<wire x1="0" y1="5.08" x2="0" y2="2.54" width="0.254" layer="94" curve="-180"/>
<wire x1="0" y1="0" x2="0" y2="-2.54" width="0.254" layer="94" curve="-180"/>
<wire x1="0" y1="-2.54" x2="0" y2="-5.08" width="0.254" layer="94" curve="-180"/>
<wire x1="0" y1="-5.08" x2="0" y2="-7.62" width="0.254" layer="94" curve="-180"/>
<pin name="3" x="-5.08" y="10.16" visible="pin" length="middle"/>
<pin name="1" x="-5.08" y="2.54" visible="pin" length="middle"/>
<pin name="5" x="-5.08" y="0" visible="pin" length="middle"/>
<pin name="4" x="-5.08" y="-7.62" visible="pin" length="middle"/>
<wire x1="2.54" y1="10.16" x2="2.54" y2="-7.62" width="0.254" layer="94" style="shortdash"/>
<wire x1="5.08" y1="10.16" x2="5.08" y2="-7.62" width="0.254" layer="94"/>
<wire x1="7.62" y1="5.08" x2="7.62" y2="2.54" width="0.254" layer="94" curve="180"/>
<wire x1="7.62" y1="2.54" x2="7.62" y2="0" width="0.254" layer="94" curve="180"/>
<wire x1="7.62" y1="0" x2="7.62" y2="-2.54" width="0.254" layer="94" curve="180"/>
<pin name="S" x="12.7" y="5.08" visible="pin" length="middle" rot="R180"/>
<pin name="F" x="12.7" y="-2.54" visible="pin" length="middle" rot="R180"/>
</symbol>
<symbol name="UCC28722DBV">
<pin name="CBC" x="-15.24" y="7.62" length="middle"/>
<pin name="VDD" x="-15.24" y="0" length="middle"/>
<pin name="DRV" x="-15.24" y="-7.62" length="middle"/>
<pin name="CS" x="17.78" y="-7.62" length="middle" rot="R180"/>
<pin name="GND" x="17.78" y="0" length="middle" rot="R180"/>
<pin name="VS" x="17.78" y="7.62" length="middle" rot="R180"/>
<wire x1="-10.16" y1="-12.7" x2="12.7" y2="-12.7" width="0.254" layer="94"/>
<wire x1="12.7" y1="-12.7" x2="12.7" y2="12.7" width="0.254" layer="94"/>
<wire x1="12.7" y1="12.7" x2="-10.16" y2="12.7" width="0.254" layer="94"/>
<wire x1="-10.16" y1="12.7" x2="-10.16" y2="-12.7" width="0.254" layer="94"/>
</symbol>
<symbol name="BZM55C30-TR">
<pin name="P$1" x="-2.54" y="0" visible="off" length="short"/>
<pin name="P$2" x="5.08" y="0" visible="off" length="short" rot="R180"/>
<wire x1="0" y1="-1.27" x2="0" y2="1.27" width="0.254" layer="94"/>
<wire x1="0" y1="1.27" x2="2.54" y2="0" width="0.254" layer="94"/>
<wire x1="2.54" y1="0" x2="0" y2="-1.27" width="0.254" layer="94"/>
<wire x1="3.81" y1="1.27" x2="2.54" y2="1.27" width="0.254" layer="94"/>
<wire x1="2.54" y1="1.27" x2="2.54" y2="0" width="0.254" layer="94"/>
<wire x1="2.54" y1="0" x2="2.54" y2="-1.27" width="0.254" layer="94"/>
<wire x1="2.54" y1="-1.27" x2="1.27" y2="-1.27" width="0.254" layer="94"/>
<text x="-2.54" y="2.54" size="1.778" layer="94">&gt;NAME</text>
</symbol>
<symbol name="DFLU1400-7">
<pin name="P$1" x="-5.08" y="0" visible="off" length="short"/>
<pin name="P$2" x="3.81" y="0" visible="off" length="short" rot="R180"/>
<wire x1="-2.54" y1="-0.762" x2="-2.54" y2="0.762" width="0.254" layer="94"/>
<wire x1="-2.54" y1="0.762" x2="1.27" y2="0" width="0.254" layer="94"/>
<wire x1="1.27" y1="0" x2="-2.54" y2="-0.762" width="0.254" layer="94"/>
<wire x1="1.3" y1="1.1" x2="1.3" y2="-1.15" width="0.254" layer="94"/>
<text x="-5.08" y="2.54" size="1.778" layer="94">&gt;NAME</text>
<text x="-5.08" y="-5.08" size="1.778" layer="94">&gt;VALUE</text>
</symbol>
<symbol name="PDS1045-13">
<pin name="P$1" x="-7.62" y="2.54" visible="off" length="middle"/>
<pin name="P$2" x="-7.62" y="-2.54" visible="off" length="middle"/>
<pin name="P$3" x="7.62" y="0" visible="off" length="middle" rot="R180"/>
<wire x1="-2.54" y1="-2.54" x2="-2.54" y2="2.54" width="0.254" layer="94"/>
<wire x1="-2.54" y1="2.54" x2="2.54" y2="0" width="0.254" layer="94"/>
<wire x1="2.54" y1="0" x2="-2.54" y2="-2.54" width="0.254" layer="94"/>
<text x="-2.54" y="5.08" size="1.778" layer="94">&gt;NAME</text>
<text x="-2.54" y="-5.08" size="1.778" layer="94">&gt;VALUE</text>
</symbol>
<symbol name="EEUFR0J221">
<pin name="P$1" x="-5.08" y="0" visible="off" length="middle"/>
<pin name="P$2" x="7.62" y="0" visible="off" length="middle" rot="R180"/>
<wire x1="0" y1="-2.54" x2="0" y2="2.54" width="0.254" layer="94"/>
<wire x1="2.54" y1="-2.54" x2="2.54" y2="2.54" width="0.254" layer="94" curve="-90"/>
<wire x1="-1.27" y1="1.778" x2="-1.27" y2="2.794" width="0.254" layer="94"/>
<wire x1="-1.778" y1="2.286" x2="-0.762" y2="2.286" width="0.254" layer="94"/>
<text x="-2.54" y="5.08" size="1.778" layer="94">&gt;NAME</text>
<text x="-2.54" y="-7.62" size="1.778" layer="94">&gt;VALUE</text>
</symbol>
<symbol name="1N4764A">
<pin name="P$1" x="-5.08" y="0" visible="off" length="middle"/>
<pin name="P$2" x="10.16" y="0" visible="off" length="middle" rot="R180"/>
<wire x1="5.08" y1="0" x2="0" y2="2.54" width="0.254" layer="94"/>
<wire x1="0" y1="2.54" x2="0" y2="-2.54" width="0.254" layer="94"/>
<wire x1="0" y1="-2.54" x2="5.08" y2="0" width="0.254" layer="94"/>
<wire x1="5.08" y1="2.54" x2="5.08" y2="0" width="0.254" layer="94"/>
<wire x1="5.08" y1="0" x2="5.08" y2="-2.54" width="0.254" layer="94"/>
<wire x1="5.08" y1="-2.54" x2="2.54" y2="-2.54" width="0.254" layer="94"/>
<text x="0" y="5.08" size="1.778" layer="94">&gt;NAME</text>
<text x="0" y="-5.08" size="1.778" layer="94">&gt;VALUE</text>
</symbol>
</symbols>
<devicesets>
<deviceset name="MCMET1A_250V_FUSE">
<gates>
<gate name="G$1" symbol="MCMET1A_250V_FUSE" x="0" y="0"/>
</gates>
<devices>
<device name="" package="MCMET1A_250V_FUSE">
<connects>
<connect gate="G$1" pin="P$1" pad="P$1"/>
<connect gate="G$1" pin="P$2" pad="P$2"/>
</connects>
<technologies>
<technology name=""/>
</technologies>
</device>
</devices>
</deviceset>
<deviceset name="EUED">
<gates>
<gate name="G$1" symbol="EUED" x="0" y="0"/>
</gates>
<devices>
<device name="" package="EUED">
<connects>
<connect gate="G$1" pin="P$1" pad="P$1"/>
<connect gate="G$1" pin="P$2" pad="P$2"/>
</connects>
<technologies>
<technology name=""/>
</technologies>
</device>
</devices>
</deviceset>
<deviceset name="750341872">
<gates>
<gate name="G$1" symbol="750341872" x="-2.54" y="0"/>
</gates>
<devices>
<device name="" package="750341872">
<connects>
<connect gate="G$1" pin="1" pad="P$1"/>
<connect gate="G$1" pin="3" pad="P$3"/>
<connect gate="G$1" pin="4" pad="P$4"/>
<connect gate="G$1" pin="5" pad="P$5"/>
<connect gate="G$1" pin="F" pad="F"/>
<connect gate="G$1" pin="S" pad="S"/>
</connects>
<technologies>
<technology name=""/>
</technologies>
</device>
</devices>
</deviceset>
<deviceset name="UCC28722DBV">
<gates>
<gate name="G$1" symbol="UCC28722DBV" x="-7.62" y="-10.16"/>
</gates>
<devices>
<device name="" package="UCC28722DBV">
<connects>
<connect gate="G$1" pin="CBC" pad="P$1"/>
<connect gate="G$1" pin="CS" pad="P$4"/>
<connect gate="G$1" pin="DRV" pad="P$3"/>
<connect gate="G$1" pin="GND" pad="P$5"/>
<connect gate="G$1" pin="VDD" pad="P$2"/>
<connect gate="G$1" pin="VS" pad="P$6"/>
</connects>
<technologies>
<technology name=""/>
</technologies>
</device>
</devices>
</deviceset>
<deviceset name="BZM55C30-TR">
<gates>
<gate name="G$1" symbol="BZM55C30-TR" x="5.08" y="0"/>
</gates>
<devices>
<device name="" package="BZM55C30-TR">
<connects>
<connect gate="G$1" pin="P$1" pad="P$1"/>
<connect gate="G$1" pin="P$2" pad="P$2"/>
</connects>
<technologies>
<technology name=""/>
</technologies>
</device>
</devices>
</deviceset>
<deviceset name="DFLU1400-7">
<gates>
<gate name="G$1" symbol="DFLU1400-7" x="0" y="0"/>
</gates>
<devices>
<device name="" package="DFLU1400-7">
<connects>
<connect gate="G$1" pin="P$1" pad="P$1"/>
<connect gate="G$1" pin="P$2" pad="P$2"/>
</connects>
<technologies>
<technology name=""/>
</technologies>
</device>
</devices>
</deviceset>
<deviceset name="PDS1045-13">
<gates>
<gate name="G$1" symbol="PDS1045-13" x="0" y="0"/>
</gates>
<devices>
<device name="" package="PDS1045-13">
<connects>
<connect gate="G$1" pin="P$1" pad="P$1"/>
<connect gate="G$1" pin="P$2" pad="P$2"/>
<connect gate="G$1" pin="P$3" pad="P$5"/>
</connects>
<technologies>
<technology name=""/>
</technologies>
</device>
</devices>
</deviceset>
<deviceset name="EEUFR0J221">
<gates>
<gate name="G$1" symbol="EUED" x="2.54" y="0"/>
</gates>
<devices>
<device name="" package="EEUFR0J221">
<connects>
<connect gate="G$1" pin="P$1" pad="P$1"/>
<connect gate="G$1" pin="P$2" pad="P$2"/>
</connects>
<technologies>
<technology name=""/>
</technologies>
</device>
</devices>
</deviceset>
<deviceset name="EEU-FC0J561">
<gates>
<gate name="G$1" symbol="EEUFR0J221" x="0" y="0"/>
</gates>
<devices>
<device name="" package="EEU-FC0J561">
<connects>
<connect gate="G$1" pin="P$1" pad="P$1"/>
<connect gate="G$1" pin="P$2" pad="P$2"/>
</connects>
<technologies>
<technology name=""/>
</technologies>
</device>
</devices>
</deviceset>
<deviceset name="1N4764A">
<gates>
<gate name="G$1" symbol="1N4764A" x="-2.54" y="0"/>
</gates>
<devices>
<device name="" package="1N4764A">
<connects>
<connect gate="G$1" pin="P$1" pad="P$1"/>
<connect gate="G$1" pin="P$2" pad="P$2"/>
</connects>
<technologies>
<technology name=""/>
</technologies>
</device>
</devices>
</deviceset>
</devicesets>
</library>
</drawing>
</eagle>
