Change Component DesignItemId : Designator=JP3 Old DesignItemId=Header 3 New DesignItemId=Header 4
Change Component Footprint: Designator=JP3 Old Footprint=HDR1X3 New Footprint=HDR1X4
Change Component Comment : Designator=JP3 Old Comment=Header 3 New Comment=Header 4
Change Component Comment : Designator=JP4 Old Comment=Header 4 New Comment=PWR
Added Pin To Net: NetName=DCOMM Pin=JP3-4
Added Room: Name=DMB
