Replace Part B1 MC74VHC1GT125 in E:\Pes_prj\Altium\DMB\DMB.SchDoc with MC74VHC1GT125 from DMB.SchLib
Replace Part C2 Cap in E:\Pes_prj\Altium\DMB\DMB.SchDoc with Cap from DMB.SchLib
Replace Part C3 Cap in E:\Pes_prj\Altium\DMB\DMB.SchDoc with Cap from DMB.SchLib
Replace Part C4 Cap in E:\Pes_prj\Altium\DMB\DMB.SchDoc with Cap from DMB.SchLib
Replace Part C5 Cap in E:\Pes_prj\Altium\DMB\DMB.SchDoc with Cap from DMB.SchLib
Replace Part C6 Cap in E:\Pes_prj\Altium\DMB\DMB.SchDoc with Cap from DMB.SchLib
Replace Part C7 Cap in E:\Pes_prj\Altium\DMB\DMB.SchDoc with Cap from DMB.SchLib
Replace Part C8 Cap in E:\Pes_prj\Altium\DMB\DMB.SchDoc with Cap from DMB.SchLib
Replace Part Con ER-CON40TH-1 in E:\Pes_prj\Altium\DMB\DMB.SchDoc with ER-CON40TH-1 from DMB.SchLib
Replace Part JP1 Header_7x2_2mm in E:\Pes_prj\Altium\DMB\DMB.SchDoc with Header_7x2_2mm from DMB.SchLib
Replace Part JP2 Header_13x2_2mm in E:\Pes_prj\Altium\DMB\DMB.SchDoc with Header_13x2_2mm from DMB.SchLib
Replace Part JP3 Header 3 in E:\Pes_prj\Altium\DMB\DMB.SchDoc with Header 3 from Miscellaneous Connectors.IntLib
Replace Part JP4 Header 4 in E:\Pes_prj\Altium\DMB\DMB.SchDoc with Header 4 from Miscellaneous Connectors.IntLib
Replace Part JP5 Header 2 in E:\Pes_prj\Altium\DMB\DMB.SchDoc with Header 2 from Miscellaneous Connectors.IntLib
Replace Part JP6 Header 3X2 in E:\Pes_prj\Altium\DMB\DMB.SchDoc with Header 3X2 from Miscellaneous Connectors.IntLib
Replace Part O1 PBRC16.00MR70X000 in E:\Pes_prj\Altium\DMB\DMB.SchDoc with PBRC16.00MR70X000 from DMB.SchLib
Replace Part P7 Header 4 in E:\Pes_prj\Altium\DMB\DMB.SchDoc with Header 4 from Miscellaneous Connectors.IntLib
Replace Part R1 Res in E:\Pes_prj\Altium\DMB\DMB.SchDoc with Res from DMB.SchLib
Replace Part R2 Res in E:\Pes_prj\Altium\DMB\DMB.SchDoc with Res from DMB.SchLib
Replace Part R3 Res in E:\Pes_prj\Altium\DMB\DMB.SchDoc with Res from DMB.SchLib
Replace Part R4 Res in E:\Pes_prj\Altium\DMB\DMB.SchDoc with Res from DMB.SchLib
Replace Part R5 Res in E:\Pes_prj\Altium\DMB\DMB.SchDoc with Res from DMB.SchLib
Replace Part R6 Res in E:\Pes_prj\Altium\DMB\DMB.SchDoc with Res from DMB.SchLib
Replace Part U1 ATmega328P-AU in E:\Pes_prj\Altium\DMB\DMB.SchDoc with ATmega328P-AU from Atmel Microcontroller 8-Bit megaAVR.IntLib
Replace Part Vr1 AMS1117 in E:\Pes_prj\Altium\DMB\DMB.SchDoc with AMS1117 from DMB.SchLib
