Added Component: Designator=C1(C0805)
Added Component: Designator=JP2(header_13x2_2mm)
Added Component: Designator=JP3(HDR1X4)
Added Component: Designator=JP4(HDR1X4)
Added Component: Designator=JP5(HDR1X2H)
Added Component: Designator=P1(HDR2X3)
Added Component: Designator=U?(32A_M)
Added Component: Designator=Vr1(AMS1117_SOT-223)
Added Pin To Net: NetName=3.3V Pin=Vr1-2
Added Net: Name=3.3V
Added Pin To Net: NetName=GND Pin=C1-1
Added Pin To Net: NetName=GND Pin=Vr1-1
Added Net: Name=GND
Added Pin To Net: NetName=VCC Pin=C1-2
Added Pin To Net: NetName=VCC Pin=Vr1-3
Added Net: Name=VCC
Added Class: Name=DMB
Added Room: Name=DMB
