Change Component Designator: OldDesignator=* NewDesignator=Con
Change Net Name : Old Net Name=Net*_1 New Net Name=NetCon_1
Change Net Name : Old Net Name=Net*_2 New Net Name=NetCon_2
Change Net Name : Old Net Name=Net*_3 New Net Name=NetCon_3
Change Net Name : Old Net Name=Net*_4 New Net Name=NetCon_4
Change Net Name : Old Net Name=Net*_6 New Net Name=NetC6_1
Added Room: Name=DMB_V2.0_A0
