Removed Pin From Net: NetName=NetR3_1 Pin=Con-1
Removed Pin From Net: NetName=NetR2_1 Pin=Con-2
Removed Pin From Net: NetName=NetR4_1 Pin=Con-3
Removed Pin From Net: NetName=NetR5_1 Pin=Con-4
Removed Pin From Net: NetName=GND Pin=Con-5
Removed Pin From Net: NetName=NetC6_1 Pin=Con-6
Removed Pin From Net: NetName=NetC6_1 Pin=Con-7
Removed Pin From Net: NetName=TFT_CS Pin=Con-9
Removed Pin From Net: NetName=TFT_SCK Pin=Con-10
Removed Pin From Net: NetName=TFT_D/C Pin=Con-11
Removed Pin From Net: NetName=NetC6_1 Pin=Con-12
Removed Pin From Net: NetName=TFT_DI Pin=Con-13
Removed Pin From Net: NetName=TFT_DO Pin=Con-14
Removed Pin From Net: NetName=TFT_RST Pin=Con-15
Removed Pin From Net: NetName=GND Pin=Con-16
Removed Pin From Net: NetName=GND Pin=Con-17
Removed Pin From Net: NetName=GND Pin=Con-18
Removed Pin From Net: NetName=GND Pin=Con-19
Removed Pin From Net: NetName=GND Pin=Con-20
Removed Pin From Net: NetName=GND Pin=Con-21
Removed Pin From Net: NetName=GND Pin=Con-22
Removed Pin From Net: NetName=GND Pin=Con-23
Removed Pin From Net: NetName=GND Pin=Con-24
Removed Pin From Net: NetName=GND Pin=Con-25
Removed Pin From Net: NetName=GND Pin=Con-26
Removed Pin From Net: NetName=GND Pin=Con-27
Removed Pin From Net: NetName=GND Pin=Con-28
Removed Pin From Net: NetName=GND Pin=Con-29
Removed Pin From Net: NetName=GND Pin=Con-30
Removed Pin From Net: NetName=GND Pin=Con-31
Removed Pin From Net: NetName=GND Pin=Con-32
Removed Pin From Net: NetName=TFT_LEDA Pin=Con-33
Removed Pin From Net: NetName=GND Pin=Con-34
Removed Pin From Net: NetName=GND Pin=Con-35
Removed Pin From Net: NetName=GND Pin=Con-36
Removed Pin From Net: NetName=GND Pin=Con-37
Removed Pin From Net: NetName=GND Pin=Con-38
Removed Pin From Net: NetName=3.3V Pin=Con-39
Removed Pin From Net: NetName=3.3V Pin=Con-40
Removed Pin From Net: NetName=NetR2_1 Pin=R2-1
Removed Pin From Net: NetName=NetR3_1 Pin=R3-1
Removed Pin From Net: NetName=NetR2_1 Pin=U1-23
Removed Pin From Net: NetName=NetR3_1 Pin=U1-24
Added Component: Designator=Con(ER-CON40HT-1)
Added Pin To Net: NetName=NetR2_1 Pin=Con-1
Added Pin To Net: NetName=NetR3_1 Pin=Con-2
Added Pin To Net: NetName=NetR4_1 Pin=Con-3
Added Pin To Net: NetName=NetR5_1 Pin=Con-4
Added Pin To Net: NetName=GND Pin=Con-5
Added Pin To Net: NetName=NetC6_1 Pin=Con-6
Added Pin To Net: NetName=NetC6_1 Pin=Con-7
Added Pin To Net: NetName=TFT_CS Pin=Con-9
Added Pin To Net: NetName=TFT_SCK Pin=Con-10
Added Pin To Net: NetName=TFT_D/C Pin=Con-11
Added Pin To Net: NetName=NetC6_1 Pin=Con-12
Added Pin To Net: NetName=TFT_DI Pin=Con-13
Added Pin To Net: NetName=TFT_DO Pin=Con-14
Added Pin To Net: NetName=TFT_RST Pin=Con-15
Added Pin To Net: NetName=GND Pin=Con-16
Added Pin To Net: NetName=GND Pin=Con-17
Added Pin To Net: NetName=GND Pin=Con-18
Added Pin To Net: NetName=GND Pin=Con-19
Added Pin To Net: NetName=GND Pin=Con-20
Added Pin To Net: NetName=GND Pin=Con-21
Added Pin To Net: NetName=GND Pin=Con-22
Added Pin To Net: NetName=GND Pin=Con-23
Added Pin To Net: NetName=GND Pin=Con-24
Added Pin To Net: NetName=GND Pin=Con-25
Added Pin To Net: NetName=GND Pin=Con-26
Added Pin To Net: NetName=GND Pin=Con-27
Added Pin To Net: NetName=GND Pin=Con-28
Added Pin To Net: NetName=GND Pin=Con-29
Added Pin To Net: NetName=GND Pin=Con-30
Added Pin To Net: NetName=GND Pin=Con-31
Added Pin To Net: NetName=GND Pin=Con-32
Added Pin To Net: NetName=TFT_LEDA Pin=Con-33
Added Pin To Net: NetName=GND Pin=Con-34
Added Pin To Net: NetName=GND Pin=Con-35
Added Pin To Net: NetName=GND Pin=Con-36
Added Pin To Net: NetName=GND Pin=Con-37
Added Pin To Net: NetName=GND Pin=Con-38
Added Pin To Net: NetName=3.3V Pin=Con-39
Added Pin To Net: NetName=3.3V Pin=Con-40
Added Pin To Net: NetName=NetR3_1 Pin=R2-1
Added Pin To Net: NetName=NetR2_1 Pin=R3-1
Added Pin To Net: NetName=NetR3_1 Pin=U1-23
Added Pin To Net: NetName=NetR2_1 Pin=U1-24
Change Net Name : Old Net Name=NetR2_1 New Net Name=NetCon_1
Change Net Name : Old Net Name=NetR3_1 New Net Name=NetCon_2
Change Net Name : Old Net Name=NetR4_1 New Net Name=NetCon_3
Change Net Name : Old Net Name=NetR5_1 New Net Name=NetCon_4
Added Member To Class: ClassName=DMB_V2.0_A0 Member=Component Con ER-CON40TH-1
Added Room: Name=DMB_V2.0_A0
