Change Component Comment : Designator=JP5 Old Comment=Header 2 New Comment=PHOTO
Change Component Comment : Designator=ICSP Old Comment=Header 3X2 New Comment=ICSP
Change Component Comment : Designator=P7 Old Comment=Header 4 New Comment=PIR
Change Component Comment : Designator=PWR Old Comment=Header 4 New Comment=PWR
Change Component Designator: OldDesignator=ICSP NewDesignator=JP6
Change Component Designator: OldDesignator=PWR NewDesignator=JP4
