%FSLAX23Y23*%
%MOIN*%
G70*
G01*
G75*
G04 Layer_Physical_Order=1*
G04 Layer_Color=255*
%ADD10R,0.016X0.039*%
%ADD11R,0.041X0.043*%
%ADD12R,0.049X0.012*%
%ADD13R,0.059X0.020*%
%ADD14O,0.024X0.077*%
%ADD15O,0.077X0.024*%
%ADD16R,0.031X0.039*%
%ADD17R,0.039X0.031*%
%ADD18R,0.035X0.024*%
%ADD19C,0.010*%
%ADD20R,0.118X0.079*%
%ADD21R,0.118X0.079*%
%ADD22C,0.060*%
%ADD23R,0.059X0.059*%
%ADD24C,0.059*%
%ADD25C,0.118*%
%ADD26R,0.059X0.059*%
%ADD27C,0.022*%
%ADD28C,0.022*%
G36*
X1968Y1570D02*
Y-1D01*
X-5D01*
Y1574D01*
X1964Y1574D01*
X1968Y1570D01*
D02*
G37*
%LPC*%
G36*
X1805Y558D02*
X1736D01*
Y548D01*
X1805D01*
Y558D01*
D02*
G37*
G36*
Y538D02*
X1736D01*
Y529D01*
X1805D01*
Y538D01*
D02*
G37*
G36*
Y597D02*
X1736D01*
Y588D01*
X1805D01*
Y597D01*
D02*
G37*
G36*
Y578D02*
X1736D01*
Y568D01*
X1805D01*
Y578D01*
D02*
G37*
G36*
Y519D02*
X1736D01*
Y509D01*
X1805D01*
Y519D01*
D02*
G37*
G36*
Y460D02*
X1736D01*
Y450D01*
X1805D01*
Y460D01*
D02*
G37*
G36*
Y440D02*
X1736D01*
Y430D01*
X1805D01*
Y440D01*
D02*
G37*
G36*
Y499D02*
X1736D01*
Y489D01*
X1805D01*
Y499D01*
D02*
G37*
G36*
Y479D02*
X1736D01*
Y470D01*
X1805D01*
Y479D01*
D02*
G37*
G36*
X138Y915D02*
X103D01*
Y881D01*
X109Y882D01*
X118Y886D01*
X127Y892D01*
X133Y901D01*
X137Y910D01*
X138Y915D01*
D02*
G37*
G36*
X93D02*
X59D01*
X60Y910D01*
X64Y901D01*
X70Y892D01*
X78Y886D01*
X88Y882D01*
X93Y881D01*
Y915D01*
D02*
G37*
G36*
Y960D02*
X88Y959D01*
X78Y955D01*
X70Y949D01*
X64Y940D01*
X60Y931D01*
X59Y925D01*
X93D01*
Y960D01*
D02*
G37*
G36*
X1917Y1003D02*
X1799D01*
X1795Y1001D01*
X1794Y998D01*
Y919D01*
X1795Y915D01*
X1799Y914D01*
X1917D01*
X1921Y915D01*
X1922Y919D01*
Y998D01*
X1921Y1001D01*
X1917Y1003D01*
D02*
G37*
G36*
X1545Y887D02*
X1504D01*
Y873D01*
X1498D01*
X1498Y874D01*
X1492Y877D01*
X1486Y879D01*
X1480Y877D01*
X1475Y874D01*
X1471Y869D01*
X1470Y862D01*
X1471Y856D01*
X1475Y851D01*
X1480Y847D01*
X1486Y846D01*
X1492Y847D01*
X1498Y851D01*
X1498Y852D01*
X1504D01*
Y838D01*
X1545D01*
Y887D01*
D02*
G37*
G36*
X1119Y749D02*
X1085D01*
Y734D01*
X1119D01*
Y749D01*
D02*
G37*
G36*
X1075D02*
X1040D01*
Y734D01*
X1075D01*
Y749D01*
D02*
G37*
G36*
X1119Y774D02*
X1085D01*
Y759D01*
X1119D01*
Y774D01*
D02*
G37*
G36*
X1075D02*
X1040D01*
Y759D01*
X1075D01*
Y774D01*
D02*
G37*
G36*
X1805Y420D02*
X1736D01*
Y411D01*
X1805D01*
Y420D01*
D02*
G37*
G36*
X652Y216D02*
X646Y214D01*
X641Y211D01*
X640Y210D01*
X497D01*
X497Y210D01*
X493Y209D01*
X490Y207D01*
X465Y182D01*
X463Y179D01*
X462Y175D01*
Y171D01*
X455Y168D01*
X448Y163D01*
X442Y155D01*
X438Y147D01*
X437Y138D01*
X438Y129D01*
X442Y120D01*
X448Y113D01*
X455Y107D01*
X463Y104D01*
X472Y103D01*
X482Y104D01*
X490Y107D01*
X497Y113D01*
X503Y120D01*
X506Y129D01*
X508Y138D01*
X506Y147D01*
X503Y155D01*
X497Y163D01*
X490Y168D01*
X487Y170D01*
X486Y174D01*
X501Y189D01*
X640D01*
X641Y188D01*
X646Y184D01*
X652Y183D01*
X658Y184D01*
X664Y188D01*
X667Y193D01*
X668Y199D01*
X667Y206D01*
X664Y211D01*
X658Y214D01*
X652Y216D01*
D02*
G37*
G36*
X1805Y184D02*
X1736D01*
Y174D01*
X1771D01*
Y164D01*
X1736D01*
Y153D01*
X1741D01*
Y139D01*
Y119D01*
X1800D01*
Y132D01*
X1804Y135D01*
X1805Y135D01*
X1811Y133D01*
X1817Y135D01*
X1823Y138D01*
X1826Y143D01*
X1827Y150D01*
X1826Y156D01*
X1823Y161D01*
X1817Y165D01*
X1811Y166D01*
X1809Y165D01*
X1805Y169D01*
Y173D01*
Y184D01*
D02*
G37*
G36*
X1510Y264D02*
X1487D01*
Y247D01*
X1510D01*
Y264D01*
D02*
G37*
G36*
X79Y360D02*
X66Y358D01*
X54Y355D01*
X43Y349D01*
X33Y341D01*
X25Y331D01*
X19Y320D01*
X16Y308D01*
X14Y295D01*
X16Y283D01*
X19Y271D01*
X25Y260D01*
X33Y250D01*
X43Y242D01*
X54Y236D01*
X66Y232D01*
X79Y231D01*
X91Y232D01*
X103Y236D01*
X114Y242D01*
X124Y250D01*
X132Y260D01*
X138Y271D01*
X142Y283D01*
X143Y295D01*
X142Y308D01*
X138Y320D01*
X132Y331D01*
X124Y341D01*
X114Y349D01*
X103Y355D01*
X91Y358D01*
X79Y360D01*
D02*
G37*
G36*
X630Y173D02*
X621Y172D01*
X612Y168D01*
X605Y163D01*
X599Y155D01*
X596Y147D01*
X595Y138D01*
X596Y129D01*
X599Y120D01*
X605Y113D01*
X612Y107D01*
X621Y104D01*
X630Y103D01*
X639Y104D01*
X648Y107D01*
X655Y113D01*
X660Y120D01*
X664Y129D01*
X665Y138D01*
X664Y147D01*
X660Y155D01*
X655Y163D01*
X648Y168D01*
X639Y172D01*
X630Y173D01*
D02*
G37*
G36*
X1511Y80D02*
X1477D01*
Y46D01*
X1511D01*
Y80D01*
D02*
G37*
G36*
X1917Y114D02*
X1799D01*
X1795Y112D01*
X1794Y109D01*
Y30D01*
X1795Y26D01*
X1799Y25D01*
X1917D01*
X1921Y26D01*
X1922Y30D01*
Y109D01*
X1921Y112D01*
X1917Y114D01*
D02*
G37*
G36*
X551Y173D02*
X542Y172D01*
X534Y168D01*
X526Y163D01*
X521Y155D01*
X517Y147D01*
X516Y138D01*
X517Y129D01*
X521Y120D01*
X526Y113D01*
X534Y107D01*
X542Y104D01*
X551Y103D01*
X560Y104D01*
X569Y107D01*
X576Y113D01*
X582Y120D01*
X585Y129D01*
X586Y138D01*
X585Y147D01*
X582Y155D01*
X576Y163D01*
X569Y168D01*
X560Y172D01*
X551Y173D01*
D02*
G37*
G36*
X1511Y125D02*
X1477D01*
Y90D01*
X1511D01*
Y125D01*
D02*
G37*
G36*
X1805Y361D02*
X1736D01*
Y351D01*
X1805D01*
Y361D01*
D02*
G37*
G36*
Y341D02*
X1736D01*
Y332D01*
X1805D01*
Y341D01*
D02*
G37*
G36*
Y401D02*
X1736D01*
Y391D01*
X1805D01*
Y401D01*
D02*
G37*
G36*
Y381D02*
X1736D01*
Y371D01*
X1805D01*
Y381D01*
D02*
G37*
G36*
Y322D02*
X1736D01*
Y312D01*
X1805D01*
Y322D01*
D02*
G37*
G36*
X1628Y323D02*
X1583D01*
Y289D01*
X1596D01*
Y270D01*
X1597Y266D01*
X1599Y263D01*
X1621Y241D01*
X1624Y239D01*
X1628Y238D01*
X1741D01*
Y237D01*
Y218D01*
Y205D01*
X1736D01*
Y194D01*
X1805D01*
Y205D01*
X1800D01*
Y218D01*
Y237D01*
Y251D01*
X1805Y253D01*
X1806Y253D01*
X1812Y251D01*
X1818Y253D01*
X1824Y256D01*
X1827Y262D01*
X1828Y268D01*
X1827Y274D01*
X1824Y279D01*
X1818Y283D01*
X1812Y284D01*
X1810Y284D01*
X1805Y288D01*
Y291D01*
Y302D01*
X1736D01*
Y292D01*
X1771D01*
Y282D01*
X1736D01*
Y271D01*
X1741D01*
Y258D01*
X1632D01*
X1616Y274D01*
Y289D01*
X1628D01*
Y323D01*
D02*
G37*
G36*
X1542Y264D02*
X1520D01*
Y247D01*
X1542D01*
Y264D01*
D02*
G37*
G36*
Y291D02*
X1520D01*
Y274D01*
X1542D01*
Y291D01*
D02*
G37*
G36*
X1510D02*
X1487D01*
Y274D01*
X1510D01*
Y291D01*
D02*
G37*
G36*
X103Y960D02*
Y925D01*
X138D01*
X137Y931D01*
X133Y940D01*
X127Y949D01*
X118Y955D01*
X109Y959D01*
X103Y960D01*
D02*
G37*
G36*
X79Y1541D02*
X66Y1539D01*
X54Y1536D01*
X43Y1530D01*
X33Y1522D01*
X25Y1512D01*
X19Y1501D01*
X16Y1489D01*
X14Y1476D01*
X16Y1464D01*
X19Y1452D01*
X25Y1441D01*
X33Y1431D01*
X43Y1423D01*
X54Y1417D01*
X66Y1413D01*
X79Y1412D01*
X91Y1413D01*
X103Y1417D01*
X114Y1423D01*
X124Y1431D01*
X132Y1441D01*
X138Y1452D01*
X142Y1464D01*
X143Y1476D01*
X142Y1489D01*
X138Y1501D01*
X132Y1512D01*
X124Y1522D01*
X114Y1530D01*
X103Y1536D01*
X91Y1539D01*
X79Y1541D01*
D02*
G37*
G36*
X1181Y1472D02*
X1172Y1471D01*
X1163Y1468D01*
X1156Y1462D01*
X1151Y1455D01*
X1147Y1446D01*
X1146Y1437D01*
X1147Y1428D01*
X1151Y1419D01*
X1156Y1412D01*
X1163Y1407D01*
X1172Y1403D01*
X1181Y1402D01*
X1190Y1403D01*
X1199Y1407D01*
X1206Y1412D01*
X1212Y1419D01*
X1215Y1428D01*
X1216Y1437D01*
X1215Y1446D01*
X1212Y1455D01*
X1206Y1462D01*
X1199Y1468D01*
X1190Y1471D01*
X1181Y1472D01*
D02*
G37*
G36*
X1102D02*
X1093Y1471D01*
X1085Y1468D01*
X1077Y1462D01*
X1072Y1455D01*
X1068Y1446D01*
X1067Y1437D01*
X1068Y1428D01*
X1072Y1419D01*
X1077Y1412D01*
X1085Y1407D01*
X1093Y1403D01*
X1102Y1402D01*
X1111Y1403D01*
X1120Y1407D01*
X1127Y1412D01*
X1133Y1419D01*
X1136Y1428D01*
X1138Y1437D01*
X1136Y1446D01*
X1133Y1455D01*
X1127Y1462D01*
X1120Y1468D01*
X1111Y1471D01*
X1102Y1472D01*
D02*
G37*
G36*
X1670Y1531D02*
X1661Y1530D01*
X1653Y1526D01*
X1646Y1521D01*
X1640Y1513D01*
X1637Y1505D01*
X1635Y1496D01*
X1637Y1487D01*
X1640Y1479D01*
X1646Y1471D01*
X1653Y1466D01*
X1661Y1462D01*
X1670Y1461D01*
X1679Y1462D01*
X1687Y1466D01*
X1695Y1471D01*
X1700Y1479D01*
X1704Y1487D01*
X1705Y1496D01*
X1704Y1505D01*
X1700Y1513D01*
X1695Y1521D01*
X1687Y1526D01*
X1679Y1530D01*
X1670Y1531D01*
D02*
G37*
G36*
X1609Y1491D02*
X1575D01*
Y1457D01*
X1580Y1458D01*
X1590Y1462D01*
X1598Y1468D01*
X1605Y1476D01*
X1609Y1486D01*
X1609Y1491D01*
D02*
G37*
G36*
X1565D02*
X1531D01*
X1532Y1486D01*
X1536Y1476D01*
X1542Y1468D01*
X1550Y1462D01*
X1560Y1458D01*
X1565Y1457D01*
Y1491D01*
D02*
G37*
G36*
X787Y1472D02*
X778Y1471D01*
X770Y1468D01*
X762Y1462D01*
X757Y1455D01*
X753Y1446D01*
X752Y1437D01*
X753Y1428D01*
X757Y1419D01*
X762Y1412D01*
X770Y1407D01*
X778Y1403D01*
X787Y1402D01*
X797Y1403D01*
X805Y1407D01*
X812Y1412D01*
X818Y1419D01*
X821Y1428D01*
X823Y1437D01*
X821Y1446D01*
X818Y1455D01*
X812Y1462D01*
X805Y1468D01*
X797Y1471D01*
X787Y1472D01*
D02*
G37*
G36*
X709D02*
X700Y1471D01*
X691Y1468D01*
X684Y1462D01*
X678Y1455D01*
X675Y1446D01*
X673Y1437D01*
X675Y1428D01*
X678Y1419D01*
X684Y1412D01*
X691Y1407D01*
X700Y1403D01*
X709Y1402D01*
X718Y1403D01*
X726Y1407D01*
X734Y1412D01*
X739Y1419D01*
X743Y1428D01*
X744Y1437D01*
X743Y1446D01*
X739Y1455D01*
X734Y1462D01*
X726Y1468D01*
X718Y1471D01*
X709Y1472D01*
D02*
G37*
G36*
X630D02*
X621Y1471D01*
X612Y1468D01*
X605Y1462D01*
X599Y1455D01*
X596Y1446D01*
X595Y1437D01*
X596Y1428D01*
X599Y1419D01*
X605Y1412D01*
X612Y1407D01*
X621Y1403D01*
X630Y1402D01*
X639Y1403D01*
X648Y1407D01*
X655Y1412D01*
X660Y1419D01*
X664Y1428D01*
X665Y1437D01*
X664Y1446D01*
X660Y1455D01*
X655Y1462D01*
X648Y1468D01*
X639Y1471D01*
X630Y1472D01*
D02*
G37*
G36*
X1024D02*
X1015Y1471D01*
X1006Y1468D01*
X999Y1462D01*
X993Y1455D01*
X990Y1446D01*
X988Y1437D01*
X990Y1428D01*
X993Y1419D01*
X999Y1412D01*
X1006Y1407D01*
X1015Y1403D01*
X1024Y1402D01*
X1033Y1403D01*
X1041Y1407D01*
X1049Y1412D01*
X1054Y1419D01*
X1058Y1428D01*
X1059Y1437D01*
X1058Y1446D01*
X1054Y1455D01*
X1049Y1462D01*
X1041Y1468D01*
X1033Y1471D01*
X1024Y1472D01*
D02*
G37*
G36*
X945D02*
X936Y1471D01*
X927Y1468D01*
X920Y1462D01*
X914Y1455D01*
X911Y1446D01*
X910Y1437D01*
X911Y1428D01*
X914Y1419D01*
X920Y1412D01*
X927Y1407D01*
X936Y1403D01*
X945Y1402D01*
X954Y1403D01*
X962Y1407D01*
X970Y1412D01*
X975Y1419D01*
X979Y1428D01*
X980Y1437D01*
X979Y1446D01*
X975Y1455D01*
X970Y1462D01*
X962Y1468D01*
X954Y1471D01*
X945Y1472D01*
D02*
G37*
G36*
X866D02*
X857Y1471D01*
X849Y1468D01*
X841Y1462D01*
X836Y1455D01*
X832Y1446D01*
X831Y1437D01*
X832Y1428D01*
X836Y1419D01*
X841Y1412D01*
X849Y1407D01*
X857Y1403D01*
X866Y1402D01*
X875Y1403D01*
X884Y1407D01*
X891Y1412D01*
X897Y1419D01*
X900Y1428D01*
X901Y1437D01*
X900Y1446D01*
X897Y1455D01*
X891Y1462D01*
X884Y1468D01*
X875Y1471D01*
X866Y1472D01*
D02*
G37*
G36*
X1770Y1531D02*
X1761Y1530D01*
X1753Y1526D01*
X1746Y1521D01*
X1740Y1513D01*
X1737Y1505D01*
X1735Y1496D01*
X1737Y1487D01*
X1740Y1479D01*
X1746Y1471D01*
X1753Y1466D01*
X1761Y1462D01*
X1770Y1461D01*
X1779Y1462D01*
X1787Y1466D01*
X1795Y1471D01*
X1800Y1479D01*
X1804Y1487D01*
X1805Y1496D01*
X1804Y1505D01*
X1800Y1513D01*
X1795Y1521D01*
X1787Y1526D01*
X1779Y1530D01*
X1770Y1531D01*
D02*
G37*
G36*
X1565Y1535D02*
X1560Y1535D01*
X1550Y1531D01*
X1542Y1524D01*
X1536Y1516D01*
X1532Y1506D01*
X1531Y1501D01*
X1565D01*
Y1535D01*
D02*
G37*
G36*
X1181Y1551D02*
X1172Y1550D01*
X1163Y1546D01*
X1156Y1541D01*
X1151Y1533D01*
X1147Y1525D01*
X1146Y1516D01*
X1147Y1507D01*
X1151Y1498D01*
X1156Y1491D01*
X1163Y1485D01*
X1172Y1482D01*
X1181Y1481D01*
X1190Y1482D01*
X1199Y1485D01*
X1206Y1491D01*
X1212Y1498D01*
X1215Y1507D01*
X1216Y1516D01*
X1215Y1525D01*
X1212Y1533D01*
X1206Y1541D01*
X1199Y1546D01*
X1190Y1550D01*
X1181Y1551D01*
D02*
G37*
G36*
X1102D02*
X1093Y1550D01*
X1085Y1546D01*
X1077Y1541D01*
X1072Y1533D01*
X1068Y1525D01*
X1067Y1516D01*
X1068Y1507D01*
X1072Y1498D01*
X1077Y1491D01*
X1085Y1485D01*
X1093Y1482D01*
X1102Y1481D01*
X1111Y1482D01*
X1120Y1485D01*
X1127Y1491D01*
X1133Y1498D01*
X1136Y1507D01*
X1138Y1516D01*
X1136Y1525D01*
X1133Y1533D01*
X1127Y1541D01*
X1120Y1546D01*
X1111Y1550D01*
X1102Y1551D01*
D02*
G37*
G36*
X1361Y1567D02*
X1301D01*
X1297Y1566D01*
X1293Y1564D01*
X1276Y1547D01*
X1269Y1550D01*
X1260Y1551D01*
X1251Y1550D01*
X1242Y1546D01*
X1235Y1541D01*
X1229Y1533D01*
X1226Y1525D01*
X1225Y1516D01*
X1226Y1507D01*
X1229Y1498D01*
X1235Y1491D01*
X1242Y1485D01*
X1251Y1482D01*
X1260Y1481D01*
X1269Y1482D01*
X1277Y1485D01*
X1285Y1491D01*
X1290Y1498D01*
X1294Y1507D01*
X1295Y1516D01*
X1294Y1525D01*
X1291Y1532D01*
X1305Y1546D01*
X1313D01*
X1315Y1541D01*
X1314Y1541D01*
X1308Y1533D01*
X1305Y1525D01*
X1303Y1516D01*
X1305Y1507D01*
X1308Y1498D01*
X1314Y1491D01*
X1321Y1485D01*
X1329Y1482D01*
X1339Y1481D01*
X1348Y1482D01*
X1355Y1485D01*
X1383Y1457D01*
Y864D01*
X1372Y853D01*
X1370Y850D01*
X1369Y846D01*
Y829D01*
X1370Y825D01*
X1372Y822D01*
X1383Y811D01*
Y754D01*
X1383Y750D01*
X1386Y747D01*
X1395Y738D01*
Y715D01*
X1425D01*
Y705D01*
X1395D01*
Y689D01*
X1376D01*
X1349Y716D01*
Y1403D01*
X1356Y1407D01*
X1363Y1412D01*
X1369Y1419D01*
X1373Y1428D01*
X1374Y1437D01*
X1373Y1446D01*
X1369Y1455D01*
X1363Y1462D01*
X1356Y1468D01*
X1348Y1471D01*
X1339Y1472D01*
X1329Y1471D01*
X1321Y1468D01*
X1314Y1462D01*
X1308Y1455D01*
X1305Y1446D01*
X1303Y1437D01*
X1305Y1428D01*
X1308Y1419D01*
X1314Y1412D01*
X1321Y1407D01*
X1328Y1403D01*
Y712D01*
X1329Y708D01*
X1331Y705D01*
X1365Y671D01*
X1368Y669D01*
X1372Y668D01*
X1667D01*
X1671Y669D01*
X1674Y671D01*
X1713Y710D01*
X1722D01*
X1724Y709D01*
X1725Y706D01*
X1725Y705D01*
X1725Y705D01*
X1725Y704D01*
X1724Y703D01*
X1723Y698D01*
X1719Y695D01*
X1715Y690D01*
X1714Y683D01*
X1715Y677D01*
X1719Y672D01*
X1724Y668D01*
X1730Y667D01*
X1736Y668D01*
X1736Y668D01*
X1741Y666D01*
Y652D01*
X1309D01*
X1270Y691D01*
Y1403D01*
X1277Y1407D01*
X1285Y1412D01*
X1290Y1419D01*
X1294Y1428D01*
X1295Y1437D01*
X1294Y1446D01*
X1290Y1455D01*
X1285Y1462D01*
X1277Y1468D01*
X1269Y1471D01*
X1260Y1472D01*
X1251Y1471D01*
X1242Y1468D01*
X1235Y1462D01*
X1229Y1455D01*
X1226Y1446D01*
X1225Y1437D01*
X1226Y1428D01*
X1229Y1419D01*
X1235Y1412D01*
X1242Y1407D01*
X1250Y1403D01*
Y687D01*
X1250Y683D01*
X1253Y680D01*
X1298Y635D01*
X1301Y632D01*
X1305Y632D01*
X1616D01*
X1618Y627D01*
X1554Y562D01*
X1552Y559D01*
X1551Y555D01*
Y125D01*
X1521D01*
Y85D01*
Y46D01*
X1542D01*
X1545Y42D01*
X1545Y39D01*
X1546Y33D01*
X1550Y28D01*
X1555Y24D01*
X1561Y23D01*
X1567Y24D01*
X1573Y28D01*
X1576Y33D01*
X1577Y39D01*
X1576Y46D01*
X1573Y51D01*
X1571Y52D01*
Y551D01*
X1632Y612D01*
X1736D01*
Y607D01*
X1805D01*
Y618D01*
X1800D01*
Y631D01*
Y651D01*
Y651D01*
X1804D01*
X1808Y652D01*
X1811Y654D01*
X1886Y728D01*
X1889Y729D01*
X1894Y733D01*
X1898Y738D01*
X1899Y744D01*
X1898Y750D01*
X1894Y756D01*
X1889Y759D01*
X1883Y760D01*
X1877Y759D01*
X1871Y756D01*
X1868Y750D01*
X1867Y744D01*
X1868Y739D01*
X1821Y693D01*
X1816Y695D01*
Y770D01*
X1815Y773D01*
X1813Y777D01*
X1803Y787D01*
X1800Y789D01*
Y803D01*
X1805D01*
Y814D01*
X1736D01*
Y803D01*
X1741D01*
Y790D01*
Y790D01*
X1682D01*
X1682Y790D01*
X1679Y789D01*
X1678Y788D01*
X1620D01*
Y804D01*
X1581D01*
X1577Y809D01*
X1578Y813D01*
X1578Y815D01*
X1593Y830D01*
X1595Y833D01*
X1596Y837D01*
Y838D01*
X1606D01*
Y848D01*
X1639D01*
X1656Y831D01*
X1656Y831D01*
X1658Y830D01*
X1659Y829D01*
X1663Y828D01*
X1736D01*
Y824D01*
X1805D01*
Y835D01*
X1800D01*
Y841D01*
X1804Y843D01*
X1805Y843D01*
X1811Y842D01*
X1817Y843D01*
X1823Y847D01*
X1826Y852D01*
X1827Y858D01*
X1826Y864D01*
X1823Y870D01*
X1817Y873D01*
X1811Y874D01*
X1805Y873D01*
X1804Y873D01*
X1800Y875D01*
Y887D01*
Y908D01*
X1750D01*
Y921D01*
X1752Y922D01*
X1755Y927D01*
X1756Y934D01*
X1755Y940D01*
X1752Y945D01*
X1746Y949D01*
X1740Y950D01*
X1734Y949D01*
X1729Y945D01*
X1725Y940D01*
X1724Y934D01*
X1725Y927D01*
X1729Y922D01*
X1730Y921D01*
Y898D01*
X1731Y894D01*
X1731Y893D01*
X1729Y888D01*
X1671D01*
X1611Y948D01*
Y959D01*
X1626D01*
Y1000D01*
X1577D01*
Y989D01*
X1563D01*
X1563Y989D01*
X1559Y989D01*
X1556Y986D01*
X1490Y920D01*
X1488Y921D01*
X1482Y919D01*
X1477Y916D01*
X1473Y911D01*
X1472Y904D01*
X1473Y898D01*
X1477Y893D01*
X1482Y889D01*
X1488Y888D01*
X1494Y889D01*
X1500Y893D01*
X1503Y898D01*
X1504Y904D01*
X1504Y906D01*
X1567Y969D01*
X1577D01*
Y959D01*
X1591D01*
Y943D01*
X1592Y940D01*
X1594Y936D01*
X1659Y871D01*
X1663Y869D01*
X1667Y868D01*
X1741D01*
Y867D01*
Y849D01*
X1667D01*
X1650Y866D01*
X1647Y868D01*
X1643Y869D01*
X1606D01*
Y887D01*
X1565D01*
Y838D01*
X1565D01*
X1567Y833D01*
X1564Y829D01*
X1562Y830D01*
X1556Y828D01*
X1551Y825D01*
X1547Y820D01*
X1546Y813D01*
X1547Y807D01*
X1551Y802D01*
X1556Y798D01*
X1562Y797D01*
X1564Y798D01*
X1569Y794D01*
Y788D01*
X1533D01*
Y804D01*
X1482D01*
Y788D01*
X1451D01*
Y804D01*
X1403D01*
Y815D01*
X1402Y819D01*
X1403Y822D01*
X1406Y822D01*
X1412Y826D01*
X1415Y831D01*
X1416Y837D01*
X1416Y839D01*
X1422Y845D01*
X1422Y845D01*
X1423Y847D01*
X1424Y848D01*
X1424Y852D01*
Y1503D01*
X1424Y1507D01*
X1422Y1510D01*
X1368Y1564D01*
X1365Y1566D01*
X1361Y1567D01*
D02*
G37*
G36*
X477Y1555D02*
Y1516D01*
X467D01*
Y1555D01*
X462Y1555D01*
X452Y1551D01*
X444Y1544D01*
X438Y1536D01*
X433Y1526D01*
X433Y1523D01*
X428D01*
X428Y1525D01*
X424Y1533D01*
X419Y1541D01*
X411Y1546D01*
X403Y1550D01*
X394Y1551D01*
X385Y1550D01*
X376Y1546D01*
X369Y1541D01*
X363Y1533D01*
X360Y1525D01*
X358Y1516D01*
X360Y1507D01*
X363Y1498D01*
X369Y1491D01*
X376Y1485D01*
X384Y1482D01*
Y1471D01*
X376Y1468D01*
X369Y1462D01*
X363Y1455D01*
X360Y1446D01*
X358Y1437D01*
X360Y1428D01*
X363Y1419D01*
X369Y1412D01*
X376Y1407D01*
X384Y1403D01*
Y1091D01*
X382Y1090D01*
X379Y1085D01*
X377Y1079D01*
X379Y1073D01*
X382Y1067D01*
X387Y1064D01*
X394Y1063D01*
X400Y1064D01*
X405Y1067D01*
X409Y1073D01*
X410Y1079D01*
X409Y1085D01*
X405Y1090D01*
X404Y1091D01*
Y1403D01*
X411Y1407D01*
X419Y1412D01*
X424Y1419D01*
X428Y1428D01*
X428Y1430D01*
X433D01*
X433Y1427D01*
X438Y1417D01*
X444Y1408D01*
X452Y1402D01*
X462Y1398D01*
X467Y1397D01*
Y1437D01*
X477D01*
Y1397D01*
X483Y1398D01*
X493Y1402D01*
X501Y1408D01*
X507Y1417D01*
X511Y1427D01*
X512Y1430D01*
X517D01*
X517Y1428D01*
X521Y1419D01*
X526Y1412D01*
X534Y1407D01*
X542Y1403D01*
X551Y1402D01*
X560Y1403D01*
X569Y1407D01*
X576Y1412D01*
X582Y1419D01*
X585Y1428D01*
X586Y1437D01*
X585Y1446D01*
X582Y1455D01*
X576Y1462D01*
X569Y1468D01*
X560Y1471D01*
X551Y1472D01*
X542Y1471D01*
X534Y1468D01*
X526Y1462D01*
X521Y1455D01*
X517Y1446D01*
X517Y1444D01*
X512D01*
X511Y1447D01*
X507Y1457D01*
X501Y1466D01*
X493Y1472D01*
X488Y1474D01*
Y1479D01*
X493Y1481D01*
X501Y1487D01*
X507Y1496D01*
X511Y1505D01*
X512Y1509D01*
X517D01*
X517Y1507D01*
X521Y1498D01*
X526Y1491D01*
X534Y1485D01*
X542Y1482D01*
X551Y1481D01*
X560Y1482D01*
X569Y1485D01*
X576Y1491D01*
X582Y1498D01*
X585Y1507D01*
X586Y1516D01*
X585Y1525D01*
X582Y1533D01*
X576Y1541D01*
X569Y1546D01*
X560Y1550D01*
X551Y1551D01*
X542Y1550D01*
X534Y1546D01*
X526Y1541D01*
X521Y1533D01*
X517Y1525D01*
X517Y1523D01*
X512D01*
X511Y1526D01*
X507Y1536D01*
X501Y1544D01*
X493Y1551D01*
X483Y1555D01*
X477Y1555D01*
D02*
G37*
G36*
X1575Y1535D02*
Y1501D01*
X1609D01*
X1609Y1506D01*
X1605Y1516D01*
X1598Y1524D01*
X1590Y1531D01*
X1580Y1535D01*
X1575Y1535D01*
D02*
G37*
G36*
X787Y1551D02*
X778Y1550D01*
X770Y1546D01*
X762Y1541D01*
X757Y1533D01*
X753Y1525D01*
X752Y1516D01*
X753Y1507D01*
X757Y1498D01*
X762Y1491D01*
X770Y1485D01*
X778Y1482D01*
X787Y1481D01*
X797Y1482D01*
X805Y1485D01*
X812Y1491D01*
X818Y1498D01*
X821Y1507D01*
X823Y1516D01*
X821Y1525D01*
X818Y1533D01*
X812Y1541D01*
X805Y1546D01*
X797Y1550D01*
X787Y1551D01*
D02*
G37*
G36*
X709D02*
X700Y1550D01*
X691Y1546D01*
X684Y1541D01*
X678Y1533D01*
X675Y1525D01*
X673Y1516D01*
X675Y1507D01*
X678Y1498D01*
X684Y1491D01*
X691Y1485D01*
X700Y1482D01*
X709Y1481D01*
X718Y1482D01*
X726Y1485D01*
X734Y1491D01*
X739Y1498D01*
X743Y1507D01*
X744Y1516D01*
X743Y1525D01*
X739Y1533D01*
X734Y1541D01*
X726Y1546D01*
X718Y1550D01*
X709Y1551D01*
D02*
G37*
G36*
X630D02*
X621Y1550D01*
X612Y1546D01*
X605Y1541D01*
X599Y1533D01*
X596Y1525D01*
X595Y1516D01*
X596Y1507D01*
X599Y1498D01*
X605Y1491D01*
X612Y1485D01*
X621Y1482D01*
X630Y1481D01*
X639Y1482D01*
X648Y1485D01*
X655Y1491D01*
X660Y1498D01*
X664Y1507D01*
X665Y1516D01*
X664Y1525D01*
X660Y1533D01*
X655Y1541D01*
X648Y1546D01*
X639Y1550D01*
X630Y1551D01*
D02*
G37*
G36*
X1024D02*
X1015Y1550D01*
X1006Y1546D01*
X999Y1541D01*
X993Y1533D01*
X990Y1525D01*
X988Y1516D01*
X990Y1507D01*
X993Y1498D01*
X999Y1491D01*
X1006Y1485D01*
X1015Y1482D01*
X1024Y1481D01*
X1033Y1482D01*
X1041Y1485D01*
X1049Y1491D01*
X1054Y1498D01*
X1058Y1507D01*
X1059Y1516D01*
X1058Y1525D01*
X1054Y1533D01*
X1049Y1541D01*
X1041Y1546D01*
X1033Y1550D01*
X1024Y1551D01*
D02*
G37*
G36*
X945D02*
X936Y1550D01*
X927Y1546D01*
X920Y1541D01*
X914Y1533D01*
X911Y1525D01*
X910Y1516D01*
X911Y1507D01*
X914Y1498D01*
X920Y1491D01*
X927Y1485D01*
X936Y1482D01*
X945Y1481D01*
X954Y1482D01*
X962Y1485D01*
X970Y1491D01*
X975Y1498D01*
X979Y1507D01*
X980Y1516D01*
X979Y1525D01*
X975Y1533D01*
X970Y1541D01*
X962Y1546D01*
X954Y1550D01*
X945Y1551D01*
D02*
G37*
G36*
X866D02*
X857Y1550D01*
X849Y1546D01*
X841Y1541D01*
X836Y1533D01*
X832Y1525D01*
X831Y1516D01*
X832Y1507D01*
X836Y1498D01*
X841Y1491D01*
X849Y1485D01*
X857Y1482D01*
X866Y1481D01*
X875Y1482D01*
X884Y1485D01*
X891Y1491D01*
X897Y1498D01*
X900Y1507D01*
X901Y1516D01*
X900Y1525D01*
X897Y1533D01*
X891Y1541D01*
X884Y1546D01*
X875Y1550D01*
X866Y1551D01*
D02*
G37*
G36*
X133Y1255D02*
X64D01*
Y1186D01*
X133D01*
Y1255D01*
D02*
G37*
G36*
X945Y1177D02*
X932Y1176D01*
X920Y1172D01*
X909Y1166D01*
X899Y1158D01*
X891Y1148D01*
X885Y1137D01*
X882Y1125D01*
X881Y1113D01*
X882Y1100D01*
X885Y1088D01*
X891Y1077D01*
X899Y1067D01*
X909Y1059D01*
X920Y1053D01*
X932Y1050D01*
X945Y1048D01*
X957Y1050D01*
X969Y1053D01*
X981Y1059D01*
X990Y1067D01*
X998Y1077D01*
X1004Y1088D01*
X1008Y1100D01*
X1009Y1113D01*
X1008Y1125D01*
X1004Y1137D01*
X998Y1148D01*
X990Y1158D01*
X981Y1166D01*
X969Y1172D01*
X957Y1176D01*
X945Y1177D01*
D02*
G37*
G36*
X1870Y1293D02*
X1861Y1292D01*
X1853Y1288D01*
X1846Y1283D01*
X1840Y1276D01*
X1837Y1267D01*
X1835Y1258D01*
X1837Y1249D01*
X1840Y1241D01*
X1846Y1234D01*
X1853Y1228D01*
X1861Y1225D01*
X1870Y1224D01*
X1879Y1225D01*
X1887Y1228D01*
X1895Y1234D01*
X1900Y1241D01*
X1904Y1249D01*
X1905Y1258D01*
X1904Y1267D01*
X1900Y1276D01*
X1895Y1283D01*
X1887Y1288D01*
X1879Y1292D01*
X1870Y1293D01*
D02*
G37*
G36*
X98Y1155D02*
X89Y1154D01*
X81Y1151D01*
X74Y1145D01*
X68Y1138D01*
X65Y1129D01*
X64Y1120D01*
X65Y1111D01*
X68Y1103D01*
X74Y1096D01*
X81Y1090D01*
X89Y1087D01*
X98Y1086D01*
X107Y1087D01*
X116Y1090D01*
X123Y1096D01*
X129Y1103D01*
X132Y1111D01*
X133Y1120D01*
X132Y1129D01*
X129Y1138D01*
X123Y1145D01*
X116Y1151D01*
X107Y1154D01*
X98Y1155D01*
D02*
G37*
G36*
X1454Y1547D02*
X1448Y1546D01*
X1442Y1542D01*
X1439Y1537D01*
X1438Y1531D01*
X1439Y1524D01*
X1442Y1519D01*
X1444Y1518D01*
Y1506D01*
X1442Y1504D01*
X1442Y1500D01*
Y1367D01*
X1442Y1363D01*
X1445Y1360D01*
X1703Y1102D01*
X1702Y1100D01*
X1704Y1094D01*
X1707Y1089D01*
X1712Y1085D01*
X1719Y1084D01*
X1725Y1085D01*
X1730Y1089D01*
X1733Y1094D01*
X1735Y1100D01*
X1733Y1107D01*
X1730Y1112D01*
X1725Y1115D01*
X1719Y1117D01*
X1717Y1116D01*
X1462Y1371D01*
Y1496D01*
X1463Y1498D01*
X1464Y1502D01*
Y1518D01*
X1465Y1519D01*
X1469Y1524D01*
X1470Y1531D01*
X1469Y1537D01*
X1465Y1542D01*
X1460Y1546D01*
X1454Y1547D01*
D02*
G37*
G36*
X1890Y1177D02*
X1877Y1176D01*
X1865Y1172D01*
X1854Y1166D01*
X1844Y1158D01*
X1836Y1148D01*
X1830Y1137D01*
X1827Y1125D01*
X1825Y1113D01*
X1827Y1100D01*
X1830Y1088D01*
X1836Y1077D01*
X1844Y1067D01*
X1854Y1059D01*
X1865Y1053D01*
X1877Y1050D01*
X1890Y1048D01*
X1902Y1050D01*
X1914Y1053D01*
X1925Y1059D01*
X1935Y1067D01*
X1943Y1077D01*
X1949Y1088D01*
X1953Y1100D01*
X1954Y1113D01*
X1953Y1125D01*
X1949Y1137D01*
X1943Y1148D01*
X1935Y1158D01*
X1925Y1166D01*
X1914Y1172D01*
X1902Y1176D01*
X1890Y1177D01*
D02*
G37*
G36*
X1631Y1066D02*
X1606D01*
Y1045D01*
X1631D01*
Y1066D01*
D02*
G37*
G36*
X1905Y1531D02*
X1836D01*
Y1462D01*
X1860D01*
Y1393D01*
X1836D01*
Y1324D01*
X1905D01*
Y1393D01*
X1880D01*
Y1462D01*
X1905D01*
Y1531D01*
D02*
G37*
G36*
X98Y1055D02*
X89Y1054D01*
X81Y1051D01*
X74Y1045D01*
X68Y1038D01*
X65Y1029D01*
X64Y1020D01*
X65Y1011D01*
X68Y1003D01*
X74Y996D01*
X81Y990D01*
X89Y987D01*
X98Y986D01*
X107Y987D01*
X116Y990D01*
X123Y996D01*
X129Y1003D01*
X132Y1011D01*
X133Y1020D01*
X132Y1029D01*
X129Y1038D01*
X123Y1045D01*
X116Y1051D01*
X107Y1054D01*
X98Y1055D01*
D02*
G37*
G36*
X875Y999D02*
X869Y998D01*
X864Y994D01*
X860Y989D01*
X859Y983D01*
X859Y981D01*
X824Y946D01*
X821Y942D01*
X821Y938D01*
Y896D01*
X819Y895D01*
X817Y893D01*
X812D01*
X811Y895D01*
X806Y899D01*
X799Y900D01*
X793Y899D01*
X787Y895D01*
X786Y893D01*
X781D01*
X780Y895D01*
X774Y899D01*
X768Y900D01*
X761Y899D01*
X756Y895D01*
X754Y893D01*
X749D01*
X748Y895D01*
X743Y899D01*
X736Y900D01*
X730Y899D01*
X724Y895D01*
X723Y893D01*
X718D01*
X717Y895D01*
X711Y899D01*
X705Y900D01*
X698Y899D01*
X693Y895D01*
X691Y893D01*
X686D01*
X685Y895D01*
X683Y896D01*
X683Y899D01*
X680Y903D01*
X670Y913D01*
X667Y915D01*
X663Y916D01*
X454D01*
X454Y916D01*
X450Y915D01*
X447Y913D01*
X437Y902D01*
X435Y903D01*
X429Y901D01*
X424Y898D01*
X420Y893D01*
X419Y886D01*
X420Y880D01*
X424Y875D01*
X429Y871D01*
X435Y870D01*
X441Y871D01*
X447Y875D01*
X450Y880D01*
X451Y886D01*
X451Y888D01*
X458Y895D01*
X624D01*
X627Y890D01*
X626Y889D01*
X625Y883D01*
Y834D01*
X261D01*
X261Y834D01*
X257Y833D01*
X253Y831D01*
X253Y831D01*
X170Y747D01*
X115D01*
Y678D01*
X184D01*
Y729D01*
X185Y729D01*
X190Y727D01*
Y667D01*
X166Y643D01*
X159Y646D01*
X150Y647D01*
X141Y646D01*
X132Y643D01*
X125Y637D01*
X120Y630D01*
X116Y622D01*
X115Y613D01*
X116Y604D01*
X120Y595D01*
X125Y588D01*
X132Y583D01*
X141Y579D01*
X150Y578D01*
X159Y579D01*
X163Y581D01*
X166Y577D01*
X152Y563D01*
X119D01*
X115Y562D01*
X112Y560D01*
X103Y551D01*
X101Y547D01*
X100Y543D01*
Y431D01*
X101Y428D01*
X103Y424D01*
X218Y309D01*
X221Y307D01*
X225Y306D01*
X225Y306D01*
X477D01*
Y258D01*
X480D01*
Y244D01*
X468Y232D01*
X399D01*
X395Y231D01*
X392Y229D01*
X346Y183D01*
X344Y179D01*
X343Y175D01*
Y29D01*
X344Y26D01*
X346Y22D01*
X357Y11D01*
X357Y11D01*
X359Y10D01*
X360Y9D01*
X364Y8D01*
X668D01*
X672Y9D01*
X675Y11D01*
X692Y28D01*
X700Y25D01*
X709Y24D01*
X718Y25D01*
X726Y29D01*
X734Y34D01*
X739Y41D01*
X743Y50D01*
X743Y52D01*
X748D01*
X748Y49D01*
X752Y39D01*
X759Y31D01*
X767Y24D01*
X777Y20D01*
X782Y19D01*
Y59D01*
X792D01*
Y19D01*
X798Y20D01*
X808Y24D01*
X816Y31D01*
X822Y39D01*
X826Y49D01*
X827Y52D01*
X832D01*
X832Y50D01*
X836Y41D01*
X841Y34D01*
X849Y29D01*
X857Y25D01*
X866Y24D01*
X875Y25D01*
X884Y29D01*
X891Y34D01*
X897Y41D01*
X900Y50D01*
X901Y59D01*
X900Y68D01*
X897Y77D01*
X891Y84D01*
X884Y90D01*
X875Y93D01*
X866Y94D01*
X857Y93D01*
X849Y90D01*
X841Y84D01*
X836Y77D01*
X832Y68D01*
X832Y66D01*
X827D01*
X826Y69D01*
X822Y79D01*
X816Y88D01*
X808Y94D01*
X803Y96D01*
Y101D01*
X808Y103D01*
X816Y109D01*
X822Y118D01*
X826Y127D01*
X827Y131D01*
X832D01*
X832Y129D01*
X836Y120D01*
X841Y113D01*
X849Y107D01*
X857Y104D01*
X866Y103D01*
X875Y104D01*
X884Y107D01*
X891Y113D01*
X897Y120D01*
X900Y129D01*
X901Y138D01*
X900Y147D01*
X897Y155D01*
X891Y163D01*
X884Y168D01*
X875Y172D01*
X866Y173D01*
X857Y172D01*
X849Y168D01*
X841Y163D01*
X836Y155D01*
X832Y147D01*
X832Y145D01*
X827D01*
X826Y148D01*
X822Y158D01*
X816Y166D01*
X808Y173D01*
X798Y177D01*
X792Y177D01*
Y138D01*
X782D01*
Y177D01*
X777Y177D01*
X767Y173D01*
X759Y166D01*
X752Y158D01*
X748Y148D01*
X748Y145D01*
X743D01*
X743Y147D01*
X740Y154D01*
X743Y158D01*
X745Y161D01*
X746Y165D01*
Y216D01*
X748Y217D01*
X751Y222D01*
X752Y228D01*
X751Y235D01*
X749Y238D01*
X753Y241D01*
X763Y236D01*
X775Y232D01*
X787Y231D01*
X800Y232D01*
X812Y236D01*
X823Y242D01*
X833Y250D01*
X841Y260D01*
X847Y271D01*
X850Y283D01*
X852Y295D01*
X850Y308D01*
X847Y320D01*
X841Y331D01*
X833Y341D01*
X823Y349D01*
X812Y355D01*
X800Y358D01*
X787Y360D01*
X775Y358D01*
X763Y355D01*
X752Y349D01*
X742Y341D01*
X734Y331D01*
X728Y320D01*
X724Y308D01*
X723Y295D01*
X724Y283D01*
X728Y271D01*
X734Y260D01*
X742Y250D01*
X742Y250D01*
X742Y249D01*
X737Y245D01*
X736Y245D01*
X730Y243D01*
X725Y240D01*
X721Y235D01*
X720Y228D01*
X721Y222D01*
X725Y217D01*
X726Y216D01*
Y174D01*
X721Y170D01*
X718Y172D01*
X709Y173D01*
X700Y172D01*
X691Y168D01*
X684Y163D01*
X678Y155D01*
X675Y147D01*
X673Y138D01*
X675Y129D01*
X678Y120D01*
X684Y113D01*
X691Y107D01*
X700Y104D01*
X709Y103D01*
X718Y104D01*
X726Y107D01*
X734Y113D01*
X739Y120D01*
X743Y129D01*
X743Y131D01*
X748D01*
X748Y127D01*
X752Y118D01*
X759Y109D01*
X767Y103D01*
X771Y101D01*
Y96D01*
X767Y94D01*
X759Y88D01*
X752Y79D01*
X748Y69D01*
X748Y66D01*
X743D01*
X743Y68D01*
X739Y77D01*
X734Y84D01*
X726Y90D01*
X718Y93D01*
X709Y94D01*
X700Y93D01*
X691Y90D01*
X684Y84D01*
X678Y77D01*
X675Y68D01*
X673Y59D01*
X675Y50D01*
X678Y42D01*
X664Y29D01*
X655D01*
X654Y33D01*
X655Y34D01*
X660Y41D01*
X664Y50D01*
X665Y59D01*
X664Y68D01*
X660Y77D01*
X655Y84D01*
X648Y90D01*
X639Y93D01*
X630Y94D01*
X621Y93D01*
X612Y90D01*
X605Y84D01*
X599Y77D01*
X596Y68D01*
X595Y59D01*
X596Y50D01*
X599Y41D01*
X605Y34D01*
X606Y33D01*
X604Y29D01*
X577D01*
X575Y33D01*
X576Y34D01*
X582Y41D01*
X585Y50D01*
X586Y59D01*
X585Y68D01*
X582Y77D01*
X576Y84D01*
X569Y90D01*
X560Y93D01*
X551Y94D01*
X542Y93D01*
X534Y90D01*
X526Y84D01*
X521Y77D01*
X517Y68D01*
X516Y59D01*
X517Y50D01*
X521Y41D01*
X526Y34D01*
X527Y33D01*
X526Y29D01*
X498D01*
X496Y33D01*
X497Y34D01*
X503Y41D01*
X506Y50D01*
X508Y59D01*
X506Y68D01*
X503Y77D01*
X497Y84D01*
X490Y90D01*
X482Y93D01*
X472Y94D01*
X463Y93D01*
X455Y90D01*
X448Y84D01*
X442Y77D01*
X438Y68D01*
X437Y59D01*
X438Y50D01*
X442Y41D01*
X448Y34D01*
X449Y33D01*
X447Y29D01*
X419D01*
X418Y33D01*
X419Y34D01*
X424Y41D01*
X428Y50D01*
X429Y59D01*
X428Y68D01*
X424Y77D01*
X419Y84D01*
X411Y90D01*
X403Y93D01*
X394Y94D01*
X385Y93D01*
X376Y90D01*
X369Y84D01*
X368Y83D01*
X363Y84D01*
Y112D01*
X368Y114D01*
X369Y113D01*
X376Y107D01*
X385Y104D01*
X394Y103D01*
X403Y104D01*
X411Y107D01*
X419Y113D01*
X424Y120D01*
X428Y129D01*
X429Y138D01*
X428Y147D01*
X424Y155D01*
X419Y163D01*
X411Y168D01*
X403Y172D01*
X394Y173D01*
X385Y172D01*
X376Y168D01*
X369Y163D01*
X368Y162D01*
X363Y163D01*
Y171D01*
X403Y211D01*
X472D01*
X476Y212D01*
X479Y214D01*
X497Y232D01*
X497Y232D01*
X499Y234D01*
X500Y236D01*
X500Y239D01*
Y258D01*
X503D01*
Y306D01*
X528D01*
X529Y306D01*
Y258D01*
X554D01*
Y307D01*
X551D01*
Y307D01*
X551Y311D01*
X548Y314D01*
X544Y319D01*
X546Y323D01*
X691D01*
X695Y324D01*
X698Y326D01*
X838Y466D01*
X840Y470D01*
X841Y473D01*
Y482D01*
X843Y483D01*
X844Y484D01*
X849Y485D01*
X850Y483D01*
X850Y483D01*
X850Y483D01*
X852Y481D01*
Y367D01*
X853Y364D01*
X855Y360D01*
X889Y326D01*
X892Y324D01*
X896Y323D01*
X896Y323D01*
X1063D01*
X1286Y101D01*
X1283Y94D01*
X1281Y85D01*
X1283Y76D01*
X1286Y68D01*
X1292Y60D01*
X1297Y57D01*
X1295Y52D01*
X1264D01*
X1247Y69D01*
X1250Y76D01*
X1251Y85D01*
X1250Y94D01*
X1246Y102D01*
X1241Y110D01*
X1234Y115D01*
X1225Y119D01*
X1216Y120D01*
X1207Y119D01*
X1199Y115D01*
X1192Y110D01*
X1186Y102D01*
X1183Y94D01*
X1181Y85D01*
X1183Y76D01*
X1186Y68D01*
X1192Y60D01*
X1199Y55D01*
X1207Y51D01*
X1216Y50D01*
X1225Y51D01*
X1232Y54D01*
X1253Y34D01*
X1256Y32D01*
X1260Y31D01*
X1340D01*
X1344Y32D01*
X1347Y34D01*
X1363Y50D01*
X1365Y54D01*
X1366Y57D01*
Y114D01*
X1371Y116D01*
X1386Y101D01*
X1383Y94D01*
X1381Y85D01*
X1383Y76D01*
X1386Y68D01*
X1392Y60D01*
X1399Y55D01*
X1407Y51D01*
X1416Y50D01*
X1425Y51D01*
X1434Y55D01*
X1441Y60D01*
X1446Y68D01*
X1450Y76D01*
X1451Y85D01*
X1450Y94D01*
X1446Y102D01*
X1441Y110D01*
X1434Y115D01*
X1425Y119D01*
X1416Y120D01*
X1407Y119D01*
X1400Y116D01*
X1382Y133D01*
Y314D01*
X1419D01*
Y328D01*
X1456D01*
X1460Y329D01*
X1463Y331D01*
X1466Y334D01*
X1492D01*
Y327D01*
X1537D01*
Y360D01*
X1492D01*
Y355D01*
X1462D01*
X1458Y354D01*
X1455Y352D01*
X1452Y349D01*
X1419D01*
Y363D01*
X1382D01*
Y382D01*
X1381Y386D01*
X1379Y389D01*
X1347Y421D01*
X1344Y424D01*
X1340Y424D01*
X1294D01*
X975Y743D01*
X972Y746D01*
X968Y746D01*
X959D01*
X958Y748D01*
X957Y749D01*
X956Y754D01*
X958Y756D01*
X958Y756D01*
X958Y756D01*
X960Y758D01*
X971D01*
X1033Y696D01*
X1036Y693D01*
X1040Y693D01*
X1045D01*
Y688D01*
X1114D01*
Y718D01*
X1045D01*
Y718D01*
X1040Y717D01*
X982Y775D01*
X979Y777D01*
X975Y778D01*
X959D01*
X958Y780D01*
X957Y781D01*
X956Y786D01*
X958Y787D01*
X958Y787D01*
X958Y787D01*
X960Y789D01*
X996D01*
X1000Y790D01*
X1003Y792D01*
X1006Y795D01*
X1045D01*
Y790D01*
X1114D01*
Y820D01*
X1045D01*
Y815D01*
X1002D01*
X998Y814D01*
X997Y814D01*
X995Y812D01*
X995Y812D01*
X992Y809D01*
X959D01*
X958Y811D01*
X952Y815D01*
X946Y816D01*
X893D01*
X886Y815D01*
X881Y811D01*
X877Y806D01*
X876Y799D01*
X877Y793D01*
X881Y787D01*
X882Y786D01*
Y781D01*
X881Y780D01*
X877Y774D01*
X876Y768D01*
X877Y761D01*
X881Y756D01*
X882Y755D01*
X882Y750D01*
X881Y748D01*
X881Y748D01*
X881Y748D01*
X879Y746D01*
X772D01*
X743Y775D01*
X740Y777D01*
X736Y778D01*
X625D01*
X623Y780D01*
X622Y781D01*
Y786D01*
X623Y787D01*
X627Y793D01*
X628Y799D01*
X627Y806D01*
X625Y808D01*
X628Y813D01*
X638D01*
X642Y813D01*
X648Y814D01*
X654Y818D01*
X655Y819D01*
X660D01*
X661Y818D01*
X667Y814D01*
X673Y813D01*
X680Y814D01*
X685Y818D01*
X686Y819D01*
X691D01*
X693Y818D01*
X698Y814D01*
X705Y813D01*
X711Y814D01*
X717Y818D01*
X718Y819D01*
X723D01*
X724Y818D01*
X730Y814D01*
X736Y813D01*
X743Y814D01*
X748Y818D01*
X749Y819D01*
X754D01*
X756Y818D01*
X761Y814D01*
X768Y813D01*
X774Y814D01*
X780Y818D01*
X781Y819D01*
X786D01*
X787Y818D01*
X793Y814D01*
X799Y813D01*
X806Y814D01*
X811Y818D01*
X812Y819D01*
X817D01*
X819Y818D01*
X824Y814D01*
X831Y813D01*
X837Y814D01*
X843Y818D01*
X844Y819D01*
X849D01*
X850Y818D01*
X856Y814D01*
X862Y813D01*
X869Y814D01*
X874Y818D01*
X878Y823D01*
X879Y830D01*
Y845D01*
X950D01*
X951Y844D01*
X956Y840D01*
X962Y839D01*
X968Y840D01*
X974Y844D01*
X977Y849D01*
X978Y855D01*
X977Y862D01*
X974Y867D01*
X968Y870D01*
X962Y872D01*
X956Y870D01*
X951Y867D01*
X950Y866D01*
X879D01*
Y883D01*
X878Y889D01*
X874Y895D01*
X869Y899D01*
X862Y900D01*
X856Y899D01*
X850Y895D01*
X849Y894D01*
X844Y893D01*
X843Y895D01*
X843Y895D01*
X843Y895D01*
X841Y897D01*
Y934D01*
X873Y967D01*
X875Y967D01*
X881Y968D01*
X887Y971D01*
X890Y977D01*
X891Y983D01*
X890Y989D01*
X887Y994D01*
X881Y998D01*
X875Y999D01*
D02*
G37*
G36*
X1596Y1035D02*
X1572D01*
Y1015D01*
X1596D01*
Y1035D01*
D02*
G37*
G36*
Y1066D02*
X1572D01*
Y1045D01*
X1596D01*
Y1066D01*
D02*
G37*
G36*
X1631Y1035D02*
X1606D01*
Y1015D01*
X1631D01*
Y1035D01*
D02*
G37*
%LPD*%
G36*
X760Y729D02*
X764Y727D01*
X768Y726D01*
X835D01*
X837Y723D01*
Y702D01*
X838Y698D01*
X840Y695D01*
X869Y666D01*
X872Y664D01*
X876Y663D01*
X878Y659D01*
X877Y658D01*
X877Y657D01*
X872Y650D01*
X871Y647D01*
X967D01*
X966Y650D01*
X962Y657D01*
X961Y658D01*
X960Y664D01*
X962Y667D01*
X963Y673D01*
X962Y680D01*
X960Y682D01*
X961Y689D01*
X962Y689D01*
X966Y696D01*
X967Y700D01*
X919D01*
Y710D01*
X967D01*
X966Y713D01*
X964Y718D01*
X966Y723D01*
X967Y723D01*
X1283Y407D01*
X1286Y405D01*
X1290Y404D01*
X1290Y404D01*
X1336D01*
X1362Y378D01*
Y366D01*
X1358Y363D01*
X1317D01*
Y314D01*
X1327D01*
Y167D01*
X1326Y166D01*
X1323Y161D01*
X1321Y154D01*
X1323Y149D01*
X1323Y148D01*
X1319Y145D01*
X1224Y240D01*
Y447D01*
X1223Y451D01*
X1221Y455D01*
X1059Y617D01*
X1055Y620D01*
X1051Y620D01*
X963D01*
X961Y625D01*
X961Y626D01*
X962Y626D01*
X966Y633D01*
X967Y637D01*
X871D01*
X872Y633D01*
X877Y626D01*
X877Y626D01*
X878Y619D01*
X877Y617D01*
X876Y610D01*
X877Y604D01*
X881Y598D01*
X882Y597D01*
Y592D01*
X881Y591D01*
X877Y585D01*
X876Y579D01*
X877Y572D01*
X881Y567D01*
X886Y563D01*
X893Y562D01*
X946D01*
X952Y563D01*
X958Y567D01*
X962Y572D01*
X963Y579D01*
X962Y585D01*
X958Y591D01*
X957Y592D01*
X956Y597D01*
X958Y598D01*
X958Y598D01*
X958Y598D01*
X960Y600D01*
X1047D01*
X1204Y443D01*
Y235D01*
X1205Y232D01*
X1207Y228D01*
X1309Y126D01*
X1312Y124D01*
X1312Y124D01*
X1311Y119D01*
X1307Y119D01*
X1300Y116D01*
X1075Y341D01*
X1072Y343D01*
X1068Y344D01*
X900D01*
X872Y372D01*
Y482D01*
X874Y483D01*
X878Y489D01*
X879Y495D01*
Y548D01*
X878Y555D01*
X874Y560D01*
X869Y564D01*
X862Y565D01*
X856Y564D01*
X850Y560D01*
X849Y559D01*
X844D01*
X843Y560D01*
X837Y564D01*
X831Y565D01*
X824Y564D01*
X819Y561D01*
X817Y561D01*
X816Y566D01*
X817Y568D01*
X818Y574D01*
X817Y581D01*
X814Y586D01*
X808Y589D01*
X802Y591D01*
X796Y589D01*
X791Y586D01*
X787Y581D01*
X786Y574D01*
X787Y568D01*
X789Y565D01*
Y562D01*
X787Y560D01*
X786Y559D01*
X781D01*
X780Y560D01*
X774Y564D01*
X768Y565D01*
X761Y564D01*
X756Y560D01*
X754Y559D01*
X749D01*
X748Y560D01*
X743Y564D01*
X736Y565D01*
X730Y564D01*
X724Y560D01*
X723Y559D01*
X718Y559D01*
X717Y560D01*
X717Y560D01*
X717Y560D01*
X715Y562D01*
X715Y567D01*
X717Y568D01*
X720Y573D01*
X721Y579D01*
X720Y586D01*
X717Y591D01*
X711Y594D01*
X705Y596D01*
X703Y595D01*
X701Y600D01*
X743Y643D01*
X745Y642D01*
X751Y643D01*
X757Y647D01*
X760Y652D01*
X761Y658D01*
X760Y665D01*
X757Y670D01*
X751Y673D01*
X751Y674D01*
X752Y678D01*
X786D01*
X787Y677D01*
X792Y673D01*
X798Y672D01*
X804Y673D01*
X810Y677D01*
X813Y682D01*
X814Y688D01*
X813Y695D01*
X810Y700D01*
X804Y703D01*
X798Y705D01*
X792Y703D01*
X787Y700D01*
X786Y699D01*
X731D01*
X731Y699D01*
X727Y698D01*
X724Y696D01*
X724Y696D01*
X649Y620D01*
X628D01*
X626Y625D01*
X626Y626D01*
X627Y626D01*
X632Y633D01*
X632Y637D01*
X537D01*
X538Y633D01*
X542Y626D01*
X543Y626D01*
X544Y619D01*
X542Y617D01*
X541Y610D01*
X542Y604D01*
X546Y598D01*
X548Y597D01*
Y592D01*
X546Y591D01*
X542Y585D01*
X541Y579D01*
X542Y572D01*
X546Y567D01*
X552Y563D01*
X558Y562D01*
X611D01*
X618Y563D01*
X623Y567D01*
X625Y569D01*
X631D01*
X634Y564D01*
X633Y563D01*
X630Y560D01*
X626Y555D01*
X625Y548D01*
Y495D01*
X626Y489D01*
X630Y483D01*
X632Y482D01*
Y473D01*
X632Y470D01*
X635Y466D01*
X652Y449D01*
X655Y447D01*
X654Y442D01*
X567D01*
X567Y444D01*
X561Y447D01*
X555Y448D01*
X554Y448D01*
X504Y497D01*
X501Y500D01*
X497Y500D01*
X486D01*
X481Y506D01*
X477Y508D01*
X473Y509D01*
Y520D01*
X424D01*
Y478D01*
X473D01*
X473Y478D01*
Y478D01*
X478Y481D01*
X482Y480D01*
X493D01*
X539Y434D01*
X539Y432D01*
X540Y426D01*
X544Y421D01*
X549Y417D01*
X555Y416D01*
X561Y417D01*
X567Y421D01*
X567Y422D01*
X758D01*
X759Y419D01*
X760Y417D01*
X687Y344D01*
X559D01*
Y358D01*
X541D01*
Y363D01*
X536D01*
Y393D01*
X523D01*
Y388D01*
X508D01*
Y393D01*
X495D01*
Y363D01*
Y334D01*
X508D01*
X512Y331D01*
X512Y331D01*
X510Y327D01*
X229D01*
X120Y436D01*
Y487D01*
X123Y488D01*
X125Y488D01*
X132Y483D01*
X141Y479D01*
X150Y478D01*
X159Y479D01*
X166Y482D01*
X224Y424D01*
X224Y424D01*
X226Y423D01*
X227Y422D01*
X231Y421D01*
X391D01*
X394Y419D01*
X401Y418D01*
X407Y419D01*
X412Y423D01*
X416Y428D01*
X417Y434D01*
X416Y440D01*
X412Y446D01*
X407Y449D01*
X401Y450D01*
X394Y449D01*
X389Y446D01*
X387Y442D01*
X235D01*
X180Y496D01*
X183Y504D01*
X184Y513D01*
X183Y522D01*
X180Y530D01*
X174Y537D01*
X167Y542D01*
X167Y543D01*
X166Y548D01*
X196Y578D01*
X196Y578D01*
X198Y580D01*
X198Y582D01*
X199Y585D01*
Y615D01*
X214Y630D01*
X219Y628D01*
X216Y622D01*
X215Y613D01*
X216Y604D01*
X220Y595D01*
X225Y588D01*
X232Y583D01*
X241Y579D01*
X250Y578D01*
X259Y579D01*
X267Y583D01*
X274Y588D01*
X280Y595D01*
X283Y604D01*
X284Y613D01*
X283Y622D01*
X280Y630D01*
X274Y637D01*
X267Y643D01*
X259Y646D01*
X250Y647D01*
X241Y646D01*
X235Y644D01*
X232Y648D01*
X257Y673D01*
X259Y676D01*
X260Y679D01*
X267Y683D01*
X274Y688D01*
X280Y695D01*
X283Y704D01*
X284Y713D01*
X283Y722D01*
X280Y729D01*
X309Y758D01*
X541D01*
X543Y753D01*
X543Y752D01*
X542Y752D01*
X538Y745D01*
X537Y741D01*
X632D01*
X632Y745D01*
X627Y752D01*
X626Y752D01*
X626Y753D01*
X628Y758D01*
X732D01*
X760Y729D01*
D02*
G37*
%LPC*%
G36*
X444Y678D02*
X418D01*
Y652D01*
X444D01*
Y678D01*
D02*
G37*
G36*
X479D02*
X454D01*
Y652D01*
X479D01*
Y678D01*
D02*
G37*
G36*
X474Y741D02*
X423D01*
Y689D01*
X474D01*
Y705D01*
X507D01*
X514Y698D01*
X518Y695D01*
X522Y695D01*
X541D01*
X543Y690D01*
X543Y689D01*
X542Y689D01*
X538Y682D01*
X537Y678D01*
X632D01*
X632Y682D01*
X627Y689D01*
X626Y689D01*
X625Y696D01*
X627Y698D01*
X628Y705D01*
X627Y711D01*
X625Y714D01*
X626Y720D01*
X627Y720D01*
X632Y728D01*
X632Y731D01*
X537D01*
X538Y728D01*
X542Y720D01*
X543Y720D01*
X543Y719D01*
X541Y715D01*
X526D01*
X518Y722D01*
X515Y725D01*
X511Y725D01*
X474D01*
Y741D01*
D02*
G37*
G36*
X632Y668D02*
X537D01*
X538Y665D01*
X542Y658D01*
Y657D01*
X538Y650D01*
X537Y647D01*
X632D01*
X632Y650D01*
X627Y657D01*
Y658D01*
X632Y665D01*
X632Y668D01*
D02*
G37*
G36*
X245Y508D02*
X210D01*
X211Y502D01*
X215Y493D01*
X221Y484D01*
X230Y478D01*
X239Y474D01*
X245Y473D01*
Y508D01*
D02*
G37*
G36*
X444Y555D02*
X419D01*
Y534D01*
X444D01*
Y555D01*
D02*
G37*
G36*
X479D02*
X454D01*
Y534D01*
X479D01*
Y555D01*
D02*
G37*
G36*
X245Y552D02*
X239Y551D01*
X230Y547D01*
X221Y541D01*
X215Y533D01*
X211Y523D01*
X210Y518D01*
X245D01*
Y552D01*
D02*
G37*
G36*
X255D02*
Y518D01*
X289D01*
X288Y523D01*
X284Y533D01*
X278Y541D01*
X270Y547D01*
X260Y551D01*
X255Y552D01*
D02*
G37*
G36*
X289Y508D02*
X255D01*
Y473D01*
X260Y474D01*
X270Y478D01*
X278Y484D01*
X284Y493D01*
X288Y502D01*
X289Y508D01*
D02*
G37*
G36*
X444Y586D02*
X419D01*
Y565D01*
X444D01*
Y586D01*
D02*
G37*
G36*
X485Y358D02*
X472D01*
Y334D01*
X485D01*
Y358D01*
D02*
G37*
G36*
X444Y642D02*
X418D01*
Y616D01*
X444D01*
Y642D01*
D02*
G37*
G36*
X479D02*
X454D01*
Y616D01*
X479D01*
Y642D01*
D02*
G37*
G36*
X479Y586D02*
X454D01*
Y565D01*
X479D01*
Y586D01*
D02*
G37*
G36*
X559Y393D02*
X546D01*
Y368D01*
X559D01*
Y393D01*
D02*
G37*
G36*
X485D02*
X472D01*
Y368D01*
X485D01*
Y393D01*
D02*
G37*
%LPD*%
D10*
X541Y363D02*
D03*
X516D02*
D03*
X490D02*
D03*
Y282D02*
D03*
X541D02*
D03*
D11*
X449Y715D02*
D03*
Y647D02*
D03*
X1594Y778D02*
D03*
Y710D02*
D03*
X1508Y778D02*
D03*
Y710D02*
D03*
X1425Y778D02*
D03*
Y710D02*
D03*
D12*
X1771Y150D02*
D03*
Y169D02*
D03*
Y189D02*
D03*
Y209D02*
D03*
Y228D02*
D03*
Y248D02*
D03*
Y268D02*
D03*
Y287D02*
D03*
Y307D02*
D03*
Y327D02*
D03*
Y346D02*
D03*
Y366D02*
D03*
Y386D02*
D03*
Y406D02*
D03*
Y425D02*
D03*
Y445D02*
D03*
Y465D02*
D03*
Y484D02*
D03*
Y504D02*
D03*
Y524D02*
D03*
Y543D02*
D03*
Y563D02*
D03*
Y583D02*
D03*
Y602D02*
D03*
Y622D02*
D03*
Y642D02*
D03*
Y661D02*
D03*
Y681D02*
D03*
Y701D02*
D03*
Y720D02*
D03*
Y740D02*
D03*
Y760D02*
D03*
Y780D02*
D03*
Y799D02*
D03*
Y819D02*
D03*
Y839D02*
D03*
Y858D02*
D03*
Y878D02*
D03*
Y898D02*
D03*
Y130D02*
D03*
D13*
X1080Y805D02*
D03*
Y754D02*
D03*
Y703D02*
D03*
D14*
X862Y522D02*
D03*
X831D02*
D03*
X799D02*
D03*
X768D02*
D03*
X736D02*
D03*
X705D02*
D03*
X673D02*
D03*
X642D02*
D03*
Y856D02*
D03*
X673D02*
D03*
X705D02*
D03*
X736D02*
D03*
X768D02*
D03*
X799D02*
D03*
X831D02*
D03*
X862D02*
D03*
D15*
X585Y579D02*
D03*
Y610D02*
D03*
Y642D02*
D03*
Y673D02*
D03*
Y705D02*
D03*
Y736D02*
D03*
Y768D02*
D03*
Y799D02*
D03*
X919D02*
D03*
Y768D02*
D03*
Y736D02*
D03*
Y705D02*
D03*
Y673D02*
D03*
Y642D02*
D03*
Y610D02*
D03*
Y579D02*
D03*
D16*
X1586Y862D02*
D03*
X1525D02*
D03*
X1338Y339D02*
D03*
X1399D02*
D03*
D17*
X1601Y1040D02*
D03*
Y979D02*
D03*
X449Y499D02*
D03*
Y560D02*
D03*
D18*
X1605Y306D02*
D03*
X1515Y269D02*
D03*
Y344D02*
D03*
D19*
X497Y199D02*
X652D01*
X472Y175D02*
X497Y199D01*
X472Y138D02*
Y175D01*
X1509Y344D02*
X1516Y338D01*
X1462Y344D02*
X1509D01*
X1456Y339D02*
X1462Y344D01*
X1399Y339D02*
X1456D01*
X1771Y209D02*
Y228D01*
Y248D01*
X449Y715D02*
X511D01*
X522Y705D01*
X585D01*
X394Y1437D02*
Y1516D01*
X1771Y130D02*
Y150D01*
X1870Y1358D02*
Y1496D01*
X1425Y778D02*
X1508D01*
X1594D01*
X1681D01*
X1682Y780D01*
X1771D01*
Y799D01*
X919D02*
X996D01*
X1002Y805D01*
X1080D01*
X860Y736D02*
X919D01*
X847Y723D02*
X860Y736D01*
X847Y702D02*
Y723D01*
Y702D02*
X876Y673D01*
X919D01*
X1663Y839D02*
X1771D01*
X1643Y858D02*
X1663Y839D01*
X1586Y858D02*
Y862D01*
X305Y768D02*
X585D01*
X250Y713D02*
X305Y768D01*
X1628Y248D02*
X1771D01*
X1606Y270D02*
X1628Y248D01*
X1606Y270D02*
Y300D01*
X150Y713D02*
X261Y823D01*
X642D02*
Y856D01*
X1667Y878D02*
X1771D01*
X1601Y943D02*
X1667Y878D01*
X642Y473D02*
Y522D01*
Y473D02*
X659Y456D01*
X757D01*
X1771Y780D02*
X1796D01*
X1806Y770D01*
Y691D02*
Y770D01*
X1796Y681D02*
X1806Y691D01*
X1771Y681D02*
X1796D01*
X831Y473D02*
Y522D01*
X691Y333D02*
X831Y473D01*
X524Y333D02*
X691D01*
X516Y342D02*
X524Y333D01*
X516Y342D02*
Y363D01*
X799Y522D02*
Y572D01*
X802Y574D01*
X736Y165D02*
Y228D01*
X709Y138D02*
X736Y165D01*
X585Y579D02*
X647D01*
X668Y18D02*
X709Y59D01*
X364Y18D02*
X668D01*
X353Y29D02*
X364Y18D01*
X353Y29D02*
Y175D01*
X399Y221D01*
X472D01*
X490Y239D01*
Y282D01*
X1561Y39D02*
Y555D01*
X1628Y622D01*
X1771D01*
Y661D02*
X1804D01*
X1709Y720D02*
X1771D01*
X1667Y678D02*
X1709Y720D01*
X1372Y678D02*
X1667D01*
X1339Y712D02*
X1372Y678D01*
X1339Y712D02*
Y1437D01*
X831Y856D02*
Y938D01*
X875Y983D01*
X1040Y703D02*
X1080D01*
X975Y768D02*
X1040Y703D01*
X919Y768D02*
X975D01*
X673Y856D02*
Y895D01*
X663Y905D02*
X673Y895D01*
X454Y905D02*
X663D01*
X435Y886D02*
X454Y905D01*
X919Y610D02*
X1051D01*
X1214Y447D01*
Y235D02*
Y447D01*
Y235D02*
X1316Y133D01*
X1340D01*
X1356Y117D01*
Y57D02*
Y117D01*
X1340Y41D02*
X1356Y57D01*
X1260Y41D02*
X1340D01*
X1216Y85D02*
X1260Y41D01*
X919Y736D02*
X968D01*
X1290Y414D01*
X1340D01*
X1372Y382D01*
Y129D02*
Y382D01*
Y129D02*
X1416Y85D01*
X394Y1079D02*
Y1437D01*
X1771Y268D02*
X1812D01*
X150Y613D02*
X200Y663D01*
Y737D01*
X262Y799D01*
X585D01*
X768Y522D02*
X778Y466D01*
Y447D02*
Y466D01*
X762Y431D02*
X778Y447D01*
X150Y513D02*
X231Y431D01*
X1771Y150D02*
X1811D01*
X585Y768D02*
X736D01*
X768Y736D01*
X250Y680D02*
Y713D01*
X189Y619D02*
X250Y680D01*
X189Y585D02*
Y619D01*
X156Y552D02*
X189Y585D01*
X119Y552D02*
X156D01*
X110Y543D02*
X119Y552D01*
X110Y431D02*
Y543D01*
Y431D02*
X225Y316D01*
X532D01*
X541Y307D01*
Y282D02*
Y307D01*
X862Y367D02*
Y522D01*
Y367D02*
X896Y333D01*
X1068D01*
X1316Y85D01*
X1740Y898D02*
X1771D01*
X1740D02*
Y934D01*
X1488Y904D02*
X1563Y979D01*
X731Y688D02*
X798D01*
X653Y610D02*
X731Y688D01*
X585Y610D02*
X653D01*
X1771Y858D02*
X1811D01*
X1562Y813D02*
X1586Y837D01*
X862Y855D02*
Y856D01*
X1525Y862D02*
Y862D01*
X1402Y744D02*
X1742Y740D01*
X1771D01*
X1260Y1516D02*
X1301Y1556D01*
X1361D01*
X1730Y683D02*
X1734Y701D01*
X1771D01*
X1260Y687D02*
Y1437D01*
Y687D02*
X1305Y642D01*
X1771D01*
X1338Y154D02*
Y339D01*
X261Y823D02*
X642D01*
X768Y736D02*
X860D01*
X1601Y943D02*
Y979D01*
X1563D02*
X1601D01*
X1601D01*
X1586Y837D02*
Y858D01*
X1643D01*
X862Y855D02*
X962D01*
X1486Y862D02*
X1525D01*
X231Y431D02*
X398D01*
X401Y434D01*
X555Y432D02*
X762D01*
X762Y431D01*
X673Y522D02*
Y587D01*
X705Y522D02*
Y579D01*
X673Y587D02*
X745Y658D01*
X705Y579D02*
X705Y579D01*
X1425Y710D02*
X1508D01*
X1594D01*
X1400Y837D02*
X1414Y852D01*
Y1503D01*
X1361Y1556D02*
X1414Y1503D01*
X1393Y754D02*
X1402Y744D01*
X1339Y1516D02*
X1393Y1462D01*
X1379Y829D02*
Y846D01*
X1393Y860D02*
Y1462D01*
Y754D02*
Y815D01*
X1379Y829D02*
X1393Y815D01*
X1379Y846D02*
X1393Y860D01*
X497Y490D02*
X555Y432D01*
X482Y490D02*
X497D01*
X449Y499D02*
X473D01*
X482Y490D01*
X1804Y661D02*
X1883Y740D01*
Y744D01*
X1454Y1502D02*
Y1531D01*
X1452Y1367D02*
X1719Y1100D01*
X1452Y1367D02*
Y1500D01*
D20*
X1858Y69D02*
D03*
D21*
Y958D02*
D03*
D22*
X394Y59D02*
D03*
Y138D02*
D03*
X866D02*
D03*
Y59D02*
D03*
X787Y138D02*
D03*
Y59D02*
D03*
X709Y138D02*
D03*
Y59D02*
D03*
X630Y138D02*
D03*
Y59D02*
D03*
X551Y138D02*
D03*
X472D02*
D03*
Y59D02*
D03*
X551D02*
D03*
X394Y1437D02*
D03*
Y1516D02*
D03*
X472Y1437D02*
D03*
Y1516D02*
D03*
X551Y1437D02*
D03*
Y1516D02*
D03*
X630Y1437D02*
D03*
Y1516D02*
D03*
X709Y1437D02*
D03*
Y1516D02*
D03*
X787Y1437D02*
D03*
Y1516D02*
D03*
X866Y1437D02*
D03*
Y1516D02*
D03*
X945Y1437D02*
D03*
Y1516D02*
D03*
X1024Y1437D02*
D03*
Y1516D02*
D03*
X1102Y1437D02*
D03*
Y1516D02*
D03*
X1181Y1437D02*
D03*
Y1516D02*
D03*
X1260Y1437D02*
D03*
Y1516D02*
D03*
X1339Y1437D02*
D03*
Y1516D02*
D03*
D23*
X150Y713D02*
D03*
X98Y1220D02*
D03*
X1870Y1358D02*
D03*
D24*
X250Y713D02*
D03*
X150Y613D02*
D03*
X250D02*
D03*
X150Y513D02*
D03*
X250D02*
D03*
X1216Y85D02*
D03*
X1316D02*
D03*
X1416D02*
D03*
X98Y920D02*
D03*
Y1020D02*
D03*
Y1120D02*
D03*
X1870Y1258D02*
D03*
X1570Y1496D02*
D03*
X1670D02*
D03*
X1770D02*
D03*
D25*
X945Y1113D02*
D03*
X1890D02*
D03*
X79Y295D02*
D03*
Y1476D02*
D03*
X787Y295D02*
D03*
D26*
X1516Y85D02*
D03*
X1870Y1496D02*
D03*
D27*
X757Y456D02*
D03*
X802Y574D02*
D03*
X736Y228D02*
D03*
X647Y579D02*
D03*
X1561Y39D02*
D03*
X875Y983D02*
D03*
X435Y886D02*
D03*
X394Y1079D02*
D03*
X1812Y268D02*
D03*
X1811Y150D02*
D03*
X1740Y934D02*
D03*
X1488Y904D02*
D03*
X798Y688D02*
D03*
X1811Y858D02*
D03*
X1562Y813D02*
D03*
X962Y855D02*
D03*
X745Y658D02*
D03*
X1486Y862D02*
D03*
X1400Y837D02*
D03*
X1730Y683D02*
D03*
X652Y199D02*
D03*
X1338Y154D02*
D03*
X705Y579D02*
D03*
X1454Y1531D02*
D03*
D28*
X555Y432D02*
D03*
X401Y434D02*
D03*
X1883Y744D02*
D03*
X1719Y1100D02*
D03*
M02*
